<?xml version="1.0" encoding="utf-8"?>
<!DOCTYPE eagle SYSTEM "eagle.dtd">
<eagle version="7.6.0">
<drawing>
<settings>
<setting alwaysvectorfont="no"/>
<setting verticaltext="up"/>
</settings>
<grid distance="0.1" unitdist="inch" unit="inch" style="lines" multiple="1" display="yes" altdistance="0.01" altunitdist="inch" altunit="inch"/>
<layers>
<layer number="1" name="Top" color="4" fill="1" visible="yes" active="yes"/>
<layer number="2" name="Route2" color="1" fill="3" visible="no" active="yes"/>
<layer number="3" name="Route3" color="4" fill="3" visible="no" active="yes"/>
<layer number="14" name="Route14" color="1" fill="6" visible="no" active="yes"/>
<layer number="15" name="Route15" color="4" fill="6" visible="no" active="yes"/>
<layer number="16" name="Bottom" color="1" fill="1" visible="yes" active="yes"/>
<layer number="17" name="Pads" color="2" fill="1" visible="yes" active="yes"/>
<layer number="18" name="Vias" color="2" fill="1" visible="yes" active="yes"/>
<layer number="19" name="Unrouted" color="6" fill="1" visible="yes" active="yes"/>
<layer number="20" name="Dimension" color="15" fill="1" visible="yes" active="yes"/>
<layer number="21" name="tPlace" color="7" fill="1" visible="yes" active="yes"/>
<layer number="22" name="bPlace" color="7" fill="1" visible="yes" active="yes"/>
<layer number="23" name="tOrigins" color="15" fill="1" visible="yes" active="yes"/>
<layer number="24" name="bOrigins" color="15" fill="1" visible="yes" active="yes"/>
<layer number="25" name="tNames" color="7" fill="1" visible="yes" active="yes"/>
<layer number="26" name="bNames" color="7" fill="1" visible="yes" active="yes"/>
<layer number="27" name="tValues" color="7" fill="1" visible="yes" active="yes"/>
<layer number="28" name="bValues" color="7" fill="1" visible="yes" active="yes"/>
<layer number="29" name="tStop" color="7" fill="3" visible="no" active="yes"/>
<layer number="30" name="bStop" color="7" fill="6" visible="no" active="yes"/>
<layer number="31" name="tCream" color="7" fill="4" visible="no" active="yes"/>
<layer number="32" name="bCream" color="7" fill="5" visible="no" active="yes"/>
<layer number="33" name="tFinish" color="6" fill="3" visible="no" active="yes"/>
<layer number="34" name="bFinish" color="6" fill="6" visible="no" active="yes"/>
<layer number="35" name="tGlue" color="7" fill="4" visible="no" active="yes"/>
<layer number="36" name="bGlue" color="7" fill="5" visible="no" active="yes"/>
<layer number="37" name="tTest" color="7" fill="1" visible="no" active="yes"/>
<layer number="38" name="bTest" color="7" fill="1" visible="no" active="yes"/>
<layer number="39" name="tKeepout" color="4" fill="11" visible="yes" active="yes"/>
<layer number="40" name="bKeepout" color="1" fill="11" visible="yes" active="yes"/>
<layer number="41" name="tRestrict" color="4" fill="10" visible="yes" active="yes"/>
<layer number="42" name="bRestrict" color="1" fill="10" visible="yes" active="yes"/>
<layer number="43" name="vRestrict" color="2" fill="10" visible="yes" active="yes"/>
<layer number="44" name="Drills" color="7" fill="1" visible="no" active="yes"/>
<layer number="45" name="Holes" color="7" fill="1" visible="no" active="yes"/>
<layer number="46" name="Milling" color="3" fill="1" visible="no" active="yes"/>
<layer number="47" name="Measures" color="7" fill="1" visible="no" active="yes"/>
<layer number="48" name="Document" color="7" fill="1" visible="yes" active="yes"/>
<layer number="49" name="Reference" color="7" fill="1" visible="yes" active="yes"/>
<layer number="51" name="tDocu" color="7" fill="1" visible="yes" active="yes"/>
<layer number="52" name="bDocu" color="7" fill="1" visible="yes" active="yes"/>
<layer number="90" name="Modules" color="5" fill="1" visible="yes" active="yes"/>
<layer number="91" name="Nets" color="2" fill="1" visible="yes" active="yes"/>
<layer number="92" name="Busses" color="1" fill="1" visible="yes" active="yes"/>
<layer number="93" name="Pins" color="2" fill="1" visible="yes" active="yes"/>
<layer number="94" name="Symbols" color="4" fill="1" visible="yes" active="yes"/>
<layer number="95" name="Names" color="7" fill="1" visible="yes" active="yes"/>
<layer number="96" name="Values" color="7" fill="1" visible="yes" active="yes"/>
<layer number="97" name="Info" color="7" fill="1" visible="yes" active="yes"/>
<layer number="98" name="Guide" color="6" fill="1" visible="yes" active="yes"/>
<layer number="99" name="SpiceOrder" color="7" fill="1" visible="yes" active="yes"/>
</layers>
<library>
<packages>
<package name="SICHERUNG_1-POL">
<description>Dummy</description>
<pad name="1" x="0" y="5.08" drill="0.2" diameter="0.6" shape="square"/>
<pad name="2" x="0" y="-5.08" drill="0.2" diameter="0.6" shape="square"/>
<text x="0" y="2.54" size="1.27" layer="25" font="vector">&gt;NAME</text>
<text x="0" y="-2.54" size="1.27" layer="27" font="vector">&gt;VALUE</text>
</package>
</packages>
<symbols>
<symbol name="SICHERUNG_1-POL">
<wire x1="1.27" y1="-2.54" x2="1.27" y2="2.54" width="0.254" layer="94"/>
<wire x1="-1.27" y1="2.54" x2="1.27" y2="2.54" width="0.254" layer="94"/>
<wire x1="0" y1="2.54" x2="0" y2="-2.54" width="0.254" layer="94"/>
<wire x1="-1.27" y1="-2.54" x2="-1.27" y2="2.54" width="0.254" layer="94"/>
<wire x1="-1.27" y1="-2.54" x2="1.27" y2="-2.54" width="0.254" layer="94"/>
<pin name="1" x="0" y="5.08" visible="pad" length="short" direction="pas" rot="R270"/>
<pin name="2" x="0" y="-5.08" visible="pad" length="short" direction="pas" rot="R90"/>
<text x="-2.54" y="2.54" size="1.778" layer="95" rot="R180">&gt;NAME</text>
<text x="-2.54" y="-3.81" size="1.27" layer="96" rot="R180">&gt;3-TYPE</text>
<text x="-2.54" y="-1.905" size="1.27" layer="96" rot="R180">&gt;2-MANUFACTURER</text>
<text x="-2.54" y="0" size="1.27" layer="96" rot="R180">&gt;1-ITEM</text>
</symbol>
</symbols>
<devicesets>
<deviceset name="SICHERUNG_1-POL" prefix="-F" uservalue="yes">
<description>Sicherung, 1-pol.</description>
<gates>
<gate name=".A" symbol="SICHERUNG_1-POL" x="0" y="0"/>
</gates>
<devices>
<device name="" package="SICHERUNG_1-POL">
<connects>
<connect gate=".A" pin="1" pad="1"/>
<connect gate=".A" pin="2" pad="2"/>
</connects>
<technologies>
<technology name="1,6A">
<attribute name="1-ITEM" value="" constant="no"/>
<attribute name="2-MANUFACTURER" value="ESKA" constant="no"/>
<attribute name="3-TYPE" value="520.619" constant="no"/>
<attribute name="SPEC" value="250V" constant="no"/>
</technology>
<technology name="10A">
<attribute name="1-ITEM" value="" constant="no"/>
<attribute name="2-MANUFACTURER" value="ESKA" constant="no"/>
<attribute name="3-TYPE" value="520.627" constant="no"/>
<attribute name="SPEC" value="250V" constant="no"/>
</technology>
<technology name="1A">
<attribute name="1-ITEM" value="" constant="no"/>
<attribute name="2-MANUFACTURER" value="ESKA" constant="no"/>
<attribute name="3-TYPE" value="520.617" constant="no"/>
<attribute name="SPEC" value="250V" constant="no"/>
</technology>
<technology name="2,5A">
<attribute name="1-ITEM" value="" constant="no"/>
<attribute name="2-MANUFACTURER" value="ESKA" constant="no"/>
<attribute name="3-TYPE" value="520.621" constant="no"/>
<attribute name="SPEC" value="250V" constant="no"/>
</technology>
<technology name="2A">
<attribute name="1-ITEM" value="" constant="no"/>
<attribute name="2-MANUFACTURER" value="ESKA" constant="no"/>
<attribute name="3-TYPE" value="520.620" constant="no"/>
<attribute name="SPEC" value="250V" constant="no"/>
</technology>
<technology name="4A">
<attribute name="1-ITEM" value="" constant="no"/>
<attribute name="2-MANUFACTURER" value="ESKA" constant="no"/>
<attribute name="3-TYPE" value="520.623" constant="no"/>
<attribute name="SPEC" value="250V" constant="no"/>
</technology>
<technology name="5A">
<attribute name="1-ITEM" value="" constant="no"/>
<attribute name="2-MANUFACTURER" value="ESKA" constant="no"/>
<attribute name="3-TYPE" value="520.624" constant="no"/>
<attribute name="SPEC" value="250V" constant="no"/>
</technology>
<technology name="6,3A">
<attribute name="1-ITEM" value="" constant="no"/>
<attribute name="2-MANUFACTURER" value="ESKA" constant="no"/>
<attribute name="3-TYPE" value="520.625" constant="no"/>
<attribute name="SPEC" value="250V" constant="no"/>
</technology>
<technology name="8A">
<attribute name="1-ITEM" value="" constant="no"/>
<attribute name="2-MANUFACTURER" value="ESKA" constant="no"/>
<attribute name="3-TYPE" value="520.626" constant="no"/>
<attribute name="SPEC" value="250V" constant="no"/>
</technology>
</technologies>
</device>
</devices>
</deviceset>
</devicesets>
</library>
</drawing>
</eagle>
