<?xml version="1.0" encoding="utf-8"?>
<!DOCTYPE eagle SYSTEM "eagle.dtd">
<eagle version="6.6.0">
<drawing>
<settings>
<setting alwaysvectorfont="yes"/>
<setting verticaltext="up"/>
</settings>
<grid distance="0.1" unitdist="inch" unit="inch" style="lines" multiple="1" display="no" altdistance="0.01" altunitdist="inch" altunit="inch"/>
<layers>
<layer number="1" name="Top" color="4" fill="1" visible="yes" active="yes"/>
<layer number="2" name="Route2" color="1" fill="3" visible="no" active="yes"/>
<layer number="3" name="Route3" color="4" fill="3" visible="no" active="yes"/>
<layer number="4" name="Route4" color="1" fill="4" visible="no" active="yes"/>
<layer number="5" name="Route5" color="4" fill="4" visible="no" active="yes"/>
<layer number="6" name="Route6" color="1" fill="8" visible="no" active="yes"/>
<layer number="7" name="Route7" color="4" fill="8" visible="no" active="yes"/>
<layer number="8" name="Route8" color="1" fill="2" visible="no" active="yes"/>
<layer number="9" name="Route9" color="4" fill="2" visible="no" active="yes"/>
<layer number="10" name="Route10" color="1" fill="7" visible="no" active="yes"/>
<layer number="11" name="Route11" color="4" fill="7" visible="no" active="yes"/>
<layer number="12" name="Route12" color="1" fill="5" visible="no" active="yes"/>
<layer number="13" name="Route13" color="4" fill="5" visible="no" active="yes"/>
<layer number="14" name="Route14" color="1" fill="6" visible="no" active="yes"/>
<layer number="15" name="Route15" color="4" fill="6" visible="no" active="yes"/>
<layer number="16" name="Bottom" color="1" fill="1" visible="yes" active="yes"/>
<layer number="17" name="Pads" color="2" fill="1" visible="yes" active="yes"/>
<layer number="18" name="Vias" color="2" fill="1" visible="yes" active="yes"/>
<layer number="19" name="Unrouted" color="6" fill="1" visible="yes" active="yes"/>
<layer number="20" name="Dimension" color="15" fill="1" visible="yes" active="yes"/>
<layer number="21" name="tPlace" color="7" fill="1" visible="yes" active="yes"/>
<layer number="22" name="bPlace" color="7" fill="1" visible="yes" active="yes"/>
<layer number="23" name="tOrigins" color="15" fill="1" visible="yes" active="yes"/>
<layer number="24" name="bOrigins" color="15" fill="1" visible="yes" active="yes"/>
<layer number="25" name="tNames" color="7" fill="1" visible="yes" active="yes"/>
<layer number="26" name="bNames" color="7" fill="1" visible="yes" active="yes"/>
<layer number="27" name="tValues" color="7" fill="1" visible="yes" active="yes"/>
<layer number="28" name="bValues" color="7" fill="1" visible="yes" active="yes"/>
<layer number="29" name="tStop" color="7" fill="3" visible="no" active="yes"/>
<layer number="30" name="bStop" color="7" fill="6" visible="no" active="yes"/>
<layer number="31" name="tCream" color="7" fill="4" visible="no" active="yes"/>
<layer number="32" name="bCream" color="7" fill="5" visible="no" active="yes"/>
<layer number="33" name="tFinish" color="6" fill="3" visible="no" active="yes"/>
<layer number="34" name="bFinish" color="6" fill="6" visible="no" active="yes"/>
<layer number="35" name="tGlue" color="7" fill="4" visible="no" active="yes"/>
<layer number="36" name="bGlue" color="7" fill="5" visible="no" active="yes"/>
<layer number="37" name="tTest" color="7" fill="1" visible="no" active="yes"/>
<layer number="38" name="bTest" color="7" fill="1" visible="no" active="yes"/>
<layer number="39" name="tKeepout" color="4" fill="11" visible="yes" active="yes"/>
<layer number="40" name="bKeepout" color="1" fill="11" visible="yes" active="yes"/>
<layer number="41" name="tRestrict" color="4" fill="10" visible="yes" active="yes"/>
<layer number="42" name="bRestrict" color="1" fill="10" visible="yes" active="yes"/>
<layer number="43" name="vRestrict" color="2" fill="10" visible="yes" active="yes"/>
<layer number="44" name="Drills" color="7" fill="1" visible="no" active="yes"/>
<layer number="45" name="Holes" color="7" fill="1" visible="no" active="yes"/>
<layer number="46" name="Milling" color="3" fill="1" visible="no" active="yes"/>
<layer number="47" name="Measures" color="7" fill="1" visible="no" active="yes"/>
<layer number="48" name="Document" color="7" fill="1" visible="yes" active="yes"/>
<layer number="49" name="Reference" color="7" fill="1" visible="yes" active="yes"/>
<layer number="51" name="tDocu" color="7" fill="1" visible="yes" active="yes"/>
<layer number="52" name="bDocu" color="7" fill="1" visible="yes" active="yes"/>
<layer number="91" name="Nets" color="2" fill="1" visible="yes" active="yes"/>
<layer number="92" name="Busses" color="1" fill="1" visible="yes" active="yes"/>
<layer number="93" name="Pins" color="2" fill="1" visible="no" active="yes"/>
<layer number="94" name="Symbols" color="4" fill="1" visible="yes" active="yes"/>
<layer number="95" name="Names" color="7" fill="1" visible="yes" active="yes"/>
<layer number="96" name="Values" color="7" fill="1" visible="yes" active="yes"/>
<layer number="97" name="Info" color="7" fill="1" visible="yes" active="yes"/>
<layer number="98" name="Guide" color="6" fill="1" visible="yes" active="yes"/>
</layers>
<library>
<packages>
</packages>
<symbols>
<symbol name="+3V3">
<wire x1="1.27" y1="-1.905" x2="0" y2="0" width="0.254" layer="94"/>
<wire x1="0" y1="0" x2="-1.27" y2="-1.905" width="0.254" layer="94"/>
<text x="-2.54" y="-5.08" size="1.778" layer="96" rot="R90" font="vector">&gt;VALUE</text>
<pin name="+3V3" x="0" y="-2.54" visible="off" length="short" direction="sup" rot="R90"/>
</symbol>
<symbol name="+5V">
<wire x1="1.27" y1="-1.905" x2="0" y2="0" width="0.254" layer="94"/>
<wire x1="0" y1="0" x2="-1.27" y2="-1.905" width="0.254" layer="94"/>
<text x="-2.54" y="-5.08" size="1.778" layer="96" rot="R90" font="vector">&gt;VALUE</text>
<pin name="+5V" x="0" y="-2.54" visible="off" length="short" direction="sup" rot="R90"/>
</symbol>
<symbol name="+12V">
<wire x1="1.27" y1="-1.905" x2="0" y2="0" width="0.254" layer="94"/>
<wire x1="0" y1="0" x2="-1.27" y2="-1.905" width="0.254" layer="94"/>
<wire x1="1.27" y1="-0.635" x2="0" y2="1.27" width="0.254" layer="94"/>
<wire x1="0" y1="1.27" x2="-1.27" y2="-0.635" width="0.254" layer="94"/>
<text x="-2.54" y="-5.08" size="1.778" layer="96" rot="R90" font="vector">&gt;VALUE</text>
<pin name="+12V" x="0" y="-2.54" visible="off" length="short" direction="sup" rot="R90"/>
</symbol>
<symbol name="+24V">
<wire x1="1.27" y1="-0.635" x2="0" y2="0" width="0.254" layer="94"/>
<wire x1="0" y1="0" x2="-1.27" y2="-0.635" width="0.254" layer="94"/>
<wire x1="1.27" y1="-0.635" x2="0" y2="1.27" width="0.254" layer="94"/>
<wire x1="0" y1="1.27" x2="-1.27" y2="-0.635" width="0.254" layer="94"/>
<text x="-2.54" y="-5.08" size="1.778" layer="96" rot="R90" font="vector">&gt;VALUE</text>
<pin name="+24V" x="0" y="-2.54" visible="off" length="short" direction="sup" rot="R90"/>
</symbol>
<symbol name="GND">
<wire x1="-1.905" y1="0" x2="1.905" y2="0" width="0.254" layer="94"/>
<text x="-2.54" y="-2.54" size="1.778" layer="96" font="vector">&gt;VALUE</text>
<pin name="GND" x="0" y="2.54" visible="off" length="short" direction="sup" rot="R270"/>
</symbol>
<symbol name="PE">
<wire x1="-1.905" y1="0" x2="1.905" y2="0" width="0.254" layer="94"/>
<wire x1="-1.0922" y1="-0.508" x2="1.0922" y2="-0.508" width="0.254" layer="94"/>
<wire x1="-0.6223" y1="-1.016" x2="0.6223" y2="-1.016" width="0.254" layer="94"/>
<wire x1="-0.3048" y1="-1.524" x2="0.3302" y2="-1.524" width="0.254" layer="94"/>
<text x="-2.54" y="-2.54" size="1.778" layer="96" rot="R90" font="vector">&gt;VALUE</text>
<pin name="PE" x="0" y="2.54" visible="off" length="short" direction="sup" rot="R270"/>
</symbol>
</symbols>
<devicesets>
<deviceset name="+3V3" prefix="+3V3">
<description>&lt;b&gt;SUPPLY SYMBOL&lt;/b&gt;</description>
<gates>
<gate name="G$1" symbol="+3V3" x="0" y="0"/>
</gates>
<devices>
<device name="">
<technologies>
<technology name=""/>
</technologies>
</device>
</devices>
</deviceset>
<deviceset name="+5V" prefix="P+">
<description>&lt;b&gt;SUPPLY SYMBOL&lt;/b&gt;</description>
<gates>
<gate name="1" symbol="+5V" x="0" y="0"/>
</gates>
<devices>
<device name="">
<technologies>
<technology name=""/>
</technologies>
</device>
</devices>
</deviceset>
<deviceset name="+12V" prefix="P+">
<description>&lt;b&gt;SUPPLY SYMBOL&lt;/b&gt;</description>
<gates>
<gate name="1" symbol="+12V" x="0" y="0"/>
</gates>
<devices>
<device name="">
<technologies>
<technology name=""/>
</technologies>
</device>
</devices>
</deviceset>
<deviceset name="+24V" prefix="P+">
<description>&lt;b&gt;SUPPLY SYMBOL&lt;/b&gt;</description>
<gates>
<gate name="1" symbol="+24V" x="0" y="0"/>
</gates>
<devices>
<device name="">
<technologies>
<technology name=""/>
</technologies>
</device>
</devices>
</deviceset>
<deviceset name="GND" prefix="GND">
<description>&lt;b&gt;SUPPLY SYMBOL&lt;/b&gt;</description>
<gates>
<gate name="1" symbol="GND" x="0" y="0"/>
</gates>
<devices>
<device name="">
<technologies>
<technology name=""/>
</technologies>
</device>
</devices>
</deviceset>
<deviceset name="PE" prefix="PE">
<description>&lt;b&gt;SUPPLY SYMBOL&lt;/b&gt;</description>
<gates>
<gate name="M" symbol="PE" x="0" y="0"/>
</gates>
<devices>
<device name="">
<technologies>
<technology name=""/>
</technologies>
</device>
</devices>
</deviceset>
</devicesets>
</library>
</drawing>
</eagle>
