<?xml version="1.0" encoding="utf-8"?>
<!DOCTYPE eagle SYSTEM "eagle.dtd">
<eagle version="7.6.0">
<drawing>
<settings>
<setting alwaysvectorfont="yes"/>
<setting verticaltext="up"/>
</settings>
<grid distance="0.1" unitdist="inch" unit="inch" style="lines" multiple="1" display="yes" altdistance="0.01" altunitdist="inch" altunit="inch"/>
<layers>
<layer number="1" name="Top" color="4" fill="1" visible="yes" active="yes"/>
<layer number="16" name="Bottom" color="1" fill="1" visible="yes" active="yes"/>
<layer number="17" name="Pads" color="2" fill="1" visible="yes" active="yes"/>
<layer number="18" name="Vias" color="2" fill="1" visible="yes" active="yes"/>
<layer number="19" name="Unrouted" color="6" fill="1" visible="yes" active="yes"/>
<layer number="20" name="Dimension" color="15" fill="1" visible="yes" active="yes"/>
<layer number="21" name="tPlace" color="7" fill="1" visible="yes" active="yes"/>
<layer number="22" name="bPlace" color="7" fill="1" visible="yes" active="yes"/>
<layer number="23" name="tOrigins" color="15" fill="1" visible="yes" active="yes"/>
<layer number="24" name="bOrigins" color="15" fill="1" visible="yes" active="yes"/>
<layer number="25" name="tNames" color="7" fill="1" visible="yes" active="yes"/>
<layer number="26" name="bNames" color="7" fill="1" visible="yes" active="yes"/>
<layer number="27" name="tValues" color="7" fill="1" visible="yes" active="yes"/>
<layer number="28" name="bValues" color="7" fill="1" visible="yes" active="yes"/>
<layer number="29" name="tStop" color="7" fill="3" visible="yes" active="yes"/>
<layer number="30" name="bStop" color="7" fill="6" visible="no" active="yes"/>
<layer number="31" name="tCream" color="7" fill="4" visible="no" active="yes"/>
<layer number="32" name="bCream" color="7" fill="5" visible="no" active="yes"/>
<layer number="33" name="tFinish" color="6" fill="3" visible="no" active="yes"/>
<layer number="34" name="bFinish" color="6" fill="6" visible="no" active="yes"/>
<layer number="35" name="tGlue" color="7" fill="4" visible="no" active="yes"/>
<layer number="36" name="bGlue" color="7" fill="5" visible="no" active="yes"/>
<layer number="37" name="tTest" color="7" fill="1" visible="no" active="yes"/>
<layer number="38" name="bTest" color="7" fill="1" visible="no" active="yes"/>
<layer number="39" name="tKeepout" color="4" fill="11" visible="yes" active="yes"/>
<layer number="40" name="bKeepout" color="1" fill="11" visible="yes" active="yes"/>
<layer number="41" name="tRestrict" color="4" fill="10" visible="yes" active="yes"/>
<layer number="42" name="bRestrict" color="1" fill="10" visible="yes" active="yes"/>
<layer number="43" name="vRestrict" color="2" fill="10" visible="yes" active="yes"/>
<layer number="44" name="Drills" color="7" fill="1" visible="no" active="yes"/>
<layer number="45" name="Holes" color="7" fill="1" visible="no" active="yes"/>
<layer number="46" name="Milling" color="3" fill="1" visible="no" active="yes"/>
<layer number="47" name="Measures" color="7" fill="1" visible="no" active="yes"/>
<layer number="48" name="Document" color="7" fill="1" visible="yes" active="yes"/>
<layer number="49" name="Reference" color="7" fill="1" visible="yes" active="yes"/>
<layer number="51" name="tDocu" color="7" fill="1" visible="yes" active="yes"/>
<layer number="52" name="bDocu" color="7" fill="1" visible="yes" active="yes"/>
<layer number="91" name="Nets" color="2" fill="1" visible="yes" active="yes"/>
<layer number="92" name="Busses" color="1" fill="1" visible="yes" active="yes"/>
<layer number="93" name="Pins" color="2" fill="1" visible="yes" active="yes"/>
<layer number="94" name="Symbols" color="4" fill="1" visible="yes" active="yes"/>
<layer number="95" name="Names" color="7" fill="1" visible="yes" active="yes"/>
<layer number="96" name="Values" color="7" fill="1" visible="yes" active="yes"/>
<layer number="97" name="Info" color="7" fill="1" visible="yes" active="yes"/>
<layer number="98" name="Guide" color="6" fill="1" visible="yes" active="yes"/>
<layer number="99" name="SpiceOrder" color="7" fill="1" visible="yes" active="yes"/>
</layers>
<library>
<packages>
<package name="FE06W">
<description>&lt;b&gt;FEMALE HEADER&lt;/b&gt;</description>
<wire x1="-7.62" y1="1.016" x2="-7.62" y2="1.524" width="0.1524" layer="21"/>
<wire x1="-7.62" y1="1.524" x2="-7.62" y2="8.89" width="0.1524" layer="21"/>
<wire x1="-7.62" y1="8.89" x2="-5.461" y2="8.89" width="0.1524" layer="21"/>
<wire x1="-5.461" y1="8.89" x2="-5.08" y2="8.89" width="0.1524" layer="21"/>
<wire x1="-5.08" y1="8.89" x2="-4.699" y2="8.89" width="0.1524" layer="21"/>
<wire x1="-4.699" y1="8.89" x2="-2.921" y2="8.89" width="0.1524" layer="21"/>
<wire x1="-2.921" y1="8.89" x2="-2.54" y2="8.89" width="0.1524" layer="21"/>
<wire x1="-2.54" y1="8.89" x2="-2.159" y2="8.89" width="0.1524" layer="21"/>
<wire x1="-2.159" y1="8.89" x2="-0.381" y2="8.89" width="0.1524" layer="21"/>
<wire x1="-0.381" y1="8.89" x2="0" y2="8.89" width="0.1524" layer="21"/>
<wire x1="0" y1="8.89" x2="0.381" y2="8.89" width="0.1524" layer="21"/>
<wire x1="0.381" y1="8.89" x2="2.159" y2="8.89" width="0.1524" layer="21"/>
<wire x1="2.159" y1="8.89" x2="2.54" y2="8.89" width="0.1524" layer="21"/>
<wire x1="2.54" y1="8.89" x2="2.921" y2="8.89" width="0.1524" layer="21"/>
<wire x1="2.921" y1="8.89" x2="4.699" y2="8.89" width="0.1524" layer="21"/>
<wire x1="5.08" y1="8.89" x2="5.08" y2="1.524" width="0.1524" layer="21"/>
<wire x1="-7.62" y1="1.524" x2="-5.461" y2="1.524" width="0.1524" layer="21"/>
<wire x1="-5.461" y1="1.524" x2="-5.08" y2="1.524" width="0.1524" layer="21"/>
<wire x1="-5.08" y1="1.524" x2="-4.699" y2="1.524" width="0.1524" layer="21"/>
<wire x1="-4.699" y1="1.524" x2="-2.921" y2="1.524" width="0.1524" layer="21"/>
<wire x1="-2.921" y1="1.524" x2="-2.54" y2="1.524" width="0.1524" layer="21"/>
<wire x1="-2.54" y1="1.524" x2="-2.159" y2="1.524" width="0.1524" layer="21"/>
<wire x1="-2.159" y1="1.524" x2="-0.381" y2="1.524" width="0.1524" layer="21"/>
<wire x1="-0.381" y1="1.524" x2="0" y2="1.524" width="0.1524" layer="21"/>
<wire x1="0" y1="1.524" x2="0.381" y2="1.524" width="0.1524" layer="21"/>
<wire x1="0.381" y1="1.524" x2="2.159" y2="1.524" width="0.1524" layer="21"/>
<wire x1="2.159" y1="1.524" x2="2.54" y2="1.524" width="0.1524" layer="21"/>
<wire x1="2.54" y1="1.524" x2="2.921" y2="1.524" width="0.1524" layer="21"/>
<wire x1="2.921" y1="1.524" x2="4.699" y2="1.524" width="0.1524" layer="21"/>
<wire x1="4.699" y1="1.524" x2="5.08" y2="1.524" width="0.1524" layer="21"/>
<wire x1="2.54" y1="8.89" x2="2.54" y2="1.524" width="0.1524" layer="21"/>
<wire x1="0" y1="8.89" x2="0" y2="1.524" width="0.1524" layer="21"/>
<wire x1="-2.54" y1="8.89" x2="-2.54" y2="1.524" width="0.1524" layer="21"/>
<wire x1="-5.08" y1="8.89" x2="-5.08" y2="1.524" width="0.1524" layer="21"/>
<wire x1="-5.461" y1="8.89" x2="-5.461" y2="1.524" width="0.0508" layer="21"/>
<wire x1="-4.699" y1="8.89" x2="-4.699" y2="1.524" width="0.0508" layer="21"/>
<wire x1="-2.921" y1="8.89" x2="-2.921" y2="1.524" width="0.0508" layer="21"/>
<wire x1="-2.159" y1="8.89" x2="-2.159" y2="1.524" width="0.0508" layer="21"/>
<wire x1="-0.381" y1="8.89" x2="-0.381" y2="1.524" width="0.0508" layer="21"/>
<wire x1="0.381" y1="8.89" x2="0.381" y2="1.524" width="0.0508" layer="21"/>
<wire x1="2.159" y1="8.89" x2="2.159" y2="1.524" width="0.1524" layer="21"/>
<wire x1="2.921" y1="8.89" x2="2.921" y2="1.524" width="0.0508" layer="21"/>
<wire x1="4.699" y1="8.89" x2="4.699" y2="1.524" width="0.0508" layer="21"/>
<wire x1="4.699" y1="8.89" x2="5.08" y2="8.89" width="0.1524" layer="21"/>
<wire x1="5.08" y1="8.89" x2="5.461" y2="8.89" width="0.1524" layer="21"/>
<wire x1="5.461" y1="8.89" x2="7.62" y2="8.89" width="0.1524" layer="21"/>
<wire x1="5.461" y1="8.89" x2="5.461" y2="1.524" width="0.0508" layer="21"/>
<wire x1="7.62" y1="8.89" x2="7.62" y2="1.524" width="0.1524" layer="21"/>
<wire x1="7.62" y1="1.524" x2="7.62" y2="1.016" width="0.1524" layer="21"/>
<wire x1="-7.62" y1="1.016" x2="7.62" y2="1.016" width="0.1524" layer="21"/>
<wire x1="5.08" y1="1.524" x2="5.461" y2="1.524" width="0.1524" layer="21"/>
<wire x1="5.461" y1="1.524" x2="7.62" y2="1.524" width="0.1524" layer="21"/>
<rectangle x1="-6.604" y1="0" x2="-6.096" y2="1.016" layer="51"/>
<rectangle x1="-4.064" y1="0" x2="-3.556" y2="1.016" layer="51"/>
<rectangle x1="-1.524" y1="0" x2="-1.016" y2="1.016" layer="51"/>
<rectangle x1="1.016" y1="0" x2="1.524" y2="1.016" layer="51"/>
<rectangle x1="3.556" y1="0" x2="4.064" y2="1.016" layer="51"/>
<rectangle x1="6.096" y1="0" x2="6.604" y2="1.016" layer="51"/>
<pad name="1" x="-6.35" y="0" drill="0.8128" shape="square" rot="R90"/>
<pad name="2" x="-3.81" y="0" drill="0.8128" shape="octagon" rot="R90"/>
<pad name="3" x="-1.27" y="0" drill="0.8128" shape="octagon" rot="R90"/>
<pad name="4" x="1.27" y="0" drill="0.8128" shape="octagon" rot="R90"/>
<pad name="5" x="3.81" y="0" drill="0.8128" shape="octagon" rot="R90"/>
<pad name="6" x="6.35" y="0" drill="0.8128" shape="octagon" rot="R90"/>
<text x="-8.255" y="1.27" size="1.27" layer="25" ratio="10" rot="R90" font="vector">&gt;NAME</text>
<text x="9.525" y="1.27" size="1.27" layer="27" ratio="10" rot="R90" font="vector">&gt;VALUE</text>
<text x="-3.175" y="2.54" size="1.27" layer="21" ratio="10" rot="R90">2</text>
<text x="6.985" y="2.54" size="1.27" layer="21" ratio="10" rot="R90">6</text>
<text x="-0.635" y="2.54" size="1.27" layer="21" ratio="10" rot="R90">3</text>
<text x="1.905" y="2.54" size="1.27" layer="21" ratio="10" rot="R90">4</text>
<text x="4.445" y="2.54" size="1.27" layer="21" ratio="10" rot="R90">5</text>
<text x="-5.715" y="2.54" size="1.27" layer="21" ratio="10" rot="R90">1</text>
</package>
<package name="MSOP8">
<description>&lt;b&gt;Micro Small Outline Package&lt;/b&gt; Grid 0.65mm&lt;p&gt;
Source: http://ww1.microchip.com/downloads/en/DeviceDoc/21796H.pdf</description>
<circle x="-1" y="-1" radius="0.2" width="0" layer="21"/>
<wire x1="-1.4" y1="1.4" x2="1.4" y2="1.4" width="0.2032" layer="21"/>
<wire x1="1.4" y1="1.4" x2="1.4" y2="-1.4" width="0.2032" layer="21"/>
<wire x1="1.4" y1="-1.4" x2="-1.4" y2="-1.4" width="0.2032" layer="21"/>
<wire x1="-1.4" y1="-1.4" x2="-1.4" y2="1.4" width="0.2032" layer="21"/>
<rectangle x1="-1.1254" y1="-2.45" x2="-0.8254" y2="-1.5" layer="51"/>
<rectangle x1="-0.4751" y1="-2.45" x2="-0.1751" y2="-1.5" layer="51"/>
<rectangle x1="0.1751" y1="-2.45" x2="0.4751" y2="-1.5" layer="51"/>
<rectangle x1="0.8253" y1="-2.45" x2="1.1253" y2="-1.5" layer="51"/>
<rectangle x1="0.8254" y1="1.5" x2="1.1254" y2="2.45" layer="51"/>
<rectangle x1="0.1751" y1="1.5" x2="0.4751" y2="2.45" layer="51"/>
<rectangle x1="-0.4751" y1="1.5" x2="-0.1751" y2="2.45" layer="51"/>
<rectangle x1="-1.1253" y1="1.5" x2="-0.8253" y2="2.45" layer="51"/>
<rectangle x1="-1.225" y1="-2.6" x2="-0.725" y2="-1.525" layer="29"/>
<rectangle x1="-0.575" y1="-2.6" x2="-0.075" y2="-1.525" layer="29"/>
<rectangle x1="0.075" y1="-2.6" x2="0.575" y2="-1.525" layer="29"/>
<rectangle x1="0.725" y1="-2.6" x2="1.225" y2="-1.525" layer="29"/>
<rectangle x1="0.725" y1="1.525" x2="1.225" y2="2.6" layer="29" rot="R180"/>
<rectangle x1="0.075" y1="1.525" x2="0.575" y2="2.6" layer="29" rot="R180"/>
<rectangle x1="-0.575" y1="1.525" x2="-0.075" y2="2.6" layer="29" rot="R180"/>
<rectangle x1="-1.225" y1="1.525" x2="-0.725" y2="2.6" layer="29" rot="R180"/>
<smd name="1" x="-0.975" y="-2.05" dx="0.45" dy="1" layer="1" stop="no"/>
<smd name="2" x="-0.325" y="-2.05" dx="0.45" dy="1" layer="1" stop="no"/>
<smd name="3" x="0.325" y="-2.05" dx="0.45" dy="1" layer="1" stop="no"/>
<smd name="4" x="0.975" y="-2.05" dx="0.45" dy="1" layer="1" stop="no"/>
<smd name="5" x="0.975" y="2.05" dx="0.45" dy="1" layer="1" stop="no"/>
<smd name="6" x="0.325" y="2.05" dx="0.45" dy="1" layer="1" stop="no"/>
<smd name="7" x="-0.325" y="2.05" dx="0.45" dy="1" layer="1" stop="no"/>
<smd name="8" x="-0.975" y="2.05" dx="0.45" dy="1" layer="1" stop="no"/>
<text x="-1.905" y="-1.905" size="1.016" layer="25" rot="R90" font="vector">&gt;NAME</text>
<text x="2.54" y="-1.905" size="1.016" layer="27" rot="R90" font="vector">&gt;VALUE</text>
</package>
<package name="TQFP100_14X14X1">
<circle x="-8.75" y="7.25" radius="0.5" width="0.127" layer="21"/>
<wire x1="-6.25" y1="-8" x2="-8" y2="-8" width="0.05" layer="21"/>
<wire x1="-8" y1="-8" x2="-8" y2="-6.25" width="0.05" layer="21"/>
<wire x1="-8" y1="6.25" x2="-8" y2="8" width="0.05" layer="21"/>
<wire x1="-8" y1="8" x2="-6.25" y2="8" width="0.05" layer="21"/>
<wire x1="6.25" y1="8" x2="8" y2="8" width="0.05" layer="21"/>
<wire x1="8" y1="8" x2="8" y2="6.25" width="0.05" layer="21"/>
<wire x1="8" y1="-6.25" x2="8" y2="-8" width="0.05" layer="21"/>
<wire x1="8" y1="-8" x2="6.25" y2="-8" width="0.05" layer="21"/>
<wire x1="-7" y1="7" x2="-6.125" y2="7" width="0.05" layer="21"/>
<wire x1="-5.875" y1="7" x2="7" y2="7" width="0.05" layer="21"/>
<wire x1="7" y1="7" x2="7" y2="-7" width="0.05" layer="21"/>
<wire x1="7" y1="-7" x2="-7" y2="-7" width="0.05" layer="21"/>
<wire x1="-7" y1="-7" x2="-7" y2="7" width="0.05" layer="21"/>
<wire x1="-7" y1="5.875" x2="-8" y2="5.875" width="0.05" layer="51"/>
<wire x1="-8" y1="5.875" x2="-8" y2="6.125" width="0.05" layer="51"/>
<wire x1="-8" y1="6.125" x2="-7" y2="6.125" width="0.05" layer="51"/>
<wire x1="-7" y1="5.375" x2="-8" y2="5.375" width="0.05" layer="51"/>
<wire x1="-8" y1="5.375" x2="-8" y2="5.625" width="0.05" layer="51"/>
<wire x1="-8" y1="5.625" x2="-7" y2="5.625" width="0.05" layer="51"/>
<wire x1="-7" y1="4.875" x2="-8" y2="4.875" width="0.05" layer="51"/>
<wire x1="-8" y1="4.875" x2="-8" y2="5.125" width="0.05" layer="51"/>
<wire x1="-8" y1="5.125" x2="-7" y2="5.125" width="0.05" layer="51"/>
<wire x1="-7" y1="4.375" x2="-8" y2="4.375" width="0.05" layer="51"/>
<wire x1="-8" y1="4.375" x2="-8" y2="4.625" width="0.05" layer="51"/>
<wire x1="-8" y1="4.625" x2="-7" y2="4.625" width="0.05" layer="51"/>
<wire x1="-7" y1="3.875" x2="-8" y2="3.875" width="0.05" layer="51"/>
<wire x1="-8" y1="3.875" x2="-8" y2="4.125" width="0.05" layer="51"/>
<wire x1="-8" y1="4.125" x2="-7" y2="4.125" width="0.05" layer="51"/>
<wire x1="-7" y1="3.375" x2="-8" y2="3.375" width="0.05" layer="51"/>
<wire x1="-8" y1="3.375" x2="-8" y2="3.625" width="0.05" layer="51"/>
<wire x1="-8" y1="3.625" x2="-7" y2="3.625" width="0.05" layer="51"/>
<wire x1="-7" y1="2.875" x2="-8" y2="2.875" width="0.05" layer="51"/>
<wire x1="-8" y1="2.875" x2="-8" y2="3.125" width="0.05" layer="51"/>
<wire x1="-8" y1="3.125" x2="-7" y2="3.125" width="0.05" layer="51"/>
<wire x1="-7" y1="2.375" x2="-8" y2="2.375" width="0.05" layer="51"/>
<wire x1="-8" y1="2.375" x2="-8" y2="2.625" width="0.05" layer="51"/>
<wire x1="-8" y1="2.625" x2="-7" y2="2.625" width="0.05" layer="51"/>
<wire x1="-7" y1="1.875" x2="-8" y2="1.875" width="0.05" layer="51"/>
<wire x1="-8" y1="1.875" x2="-8" y2="2.125" width="0.05" layer="51"/>
<wire x1="-8" y1="2.125" x2="-7" y2="2.125" width="0.05" layer="51"/>
<wire x1="-7" y1="1.375" x2="-8" y2="1.375" width="0.05" layer="51"/>
<wire x1="-8" y1="1.375" x2="-8" y2="1.625" width="0.05" layer="51"/>
<wire x1="-8" y1="1.625" x2="-7" y2="1.625" width="0.05" layer="51"/>
<wire x1="-7" y1="0.875" x2="-8" y2="0.875" width="0.05" layer="51"/>
<wire x1="-8" y1="0.875" x2="-8" y2="1.125" width="0.05" layer="51"/>
<wire x1="-8" y1="1.125" x2="-7" y2="1.125" width="0.05" layer="51"/>
<wire x1="-7" y1="0.375" x2="-8" y2="0.375" width="0.05" layer="51"/>
<wire x1="-8" y1="0.375" x2="-8" y2="0.625" width="0.05" layer="51"/>
<wire x1="-8" y1="0.625" x2="-7" y2="0.625" width="0.05" layer="51"/>
<wire x1="-7" y1="-0.125" x2="-8" y2="-0.125" width="0.05" layer="51"/>
<wire x1="-8" y1="-0.125" x2="-8" y2="0.125" width="0.05" layer="51"/>
<wire x1="-8" y1="0.125" x2="-7" y2="0.125" width="0.05" layer="51"/>
<wire x1="-7" y1="-0.625" x2="-8" y2="-0.625" width="0.05" layer="51"/>
<wire x1="-8" y1="-0.625" x2="-8" y2="-0.375" width="0.05" layer="51"/>
<wire x1="-8" y1="-0.375" x2="-7" y2="-0.375" width="0.05" layer="51"/>
<wire x1="-7" y1="-1.125" x2="-8" y2="-1.125" width="0.05" layer="51"/>
<wire x1="-8" y1="-1.125" x2="-8" y2="-0.875" width="0.05" layer="51"/>
<wire x1="-8" y1="-0.875" x2="-7" y2="-0.875" width="0.05" layer="51"/>
<wire x1="-7" y1="-1.625" x2="-8" y2="-1.625" width="0.05" layer="51"/>
<wire x1="-8" y1="-1.625" x2="-8" y2="-1.375" width="0.05" layer="51"/>
<wire x1="-8" y1="-1.375" x2="-7" y2="-1.375" width="0.05" layer="51"/>
<wire x1="-7" y1="-2.125" x2="-8" y2="-2.125" width="0.05" layer="51"/>
<wire x1="-8" y1="-2.125" x2="-8" y2="-1.875" width="0.05" layer="51"/>
<wire x1="-8" y1="-1.875" x2="-7" y2="-1.875" width="0.05" layer="51"/>
<wire x1="-7" y1="-2.625" x2="-8" y2="-2.625" width="0.05" layer="51"/>
<wire x1="-8" y1="-2.625" x2="-8" y2="-2.375" width="0.05" layer="51"/>
<wire x1="-8" y1="-2.375" x2="-7" y2="-2.375" width="0.05" layer="51"/>
<wire x1="-7" y1="-3.125" x2="-8" y2="-3.125" width="0.05" layer="51"/>
<wire x1="-8" y1="-3.125" x2="-8" y2="-2.875" width="0.05" layer="51"/>
<wire x1="-8" y1="-2.875" x2="-7" y2="-2.875" width="0.05" layer="51"/>
<wire x1="-7" y1="-3.625" x2="-8" y2="-3.625" width="0.05" layer="51"/>
<wire x1="-8" y1="-3.625" x2="-8" y2="-3.375" width="0.05" layer="51"/>
<wire x1="-8" y1="-3.375" x2="-7" y2="-3.375" width="0.05" layer="51"/>
<wire x1="-7" y1="-4.125" x2="-8" y2="-4.125" width="0.05" layer="51"/>
<wire x1="-8" y1="-4.125" x2="-8" y2="-3.875" width="0.05" layer="51"/>
<wire x1="-8" y1="-3.875" x2="-7" y2="-3.875" width="0.05" layer="51"/>
<wire x1="-7" y1="-4.625" x2="-8" y2="-4.625" width="0.05" layer="51"/>
<wire x1="-8" y1="-4.625" x2="-8" y2="-4.375" width="0.05" layer="51"/>
<wire x1="-8" y1="-4.375" x2="-7" y2="-4.375" width="0.05" layer="51"/>
<wire x1="-7" y1="-5.125" x2="-8" y2="-5.125" width="0.05" layer="51"/>
<wire x1="-8" y1="-5.125" x2="-8" y2="-4.875" width="0.05" layer="51"/>
<wire x1="-8" y1="-4.875" x2="-7" y2="-4.875" width="0.05" layer="51"/>
<wire x1="-7" y1="-5.625" x2="-8" y2="-5.625" width="0.05" layer="51"/>
<wire x1="-8" y1="-5.625" x2="-8" y2="-5.375" width="0.05" layer="51"/>
<wire x1="-8" y1="-5.375" x2="-7" y2="-5.375" width="0.05" layer="51"/>
<wire x1="-7" y1="-6.125" x2="-8" y2="-6.125" width="0.05" layer="51"/>
<wire x1="-8" y1="-6.125" x2="-8" y2="-5.875" width="0.05" layer="51"/>
<wire x1="-8" y1="-5.875" x2="-7" y2="-5.875" width="0.05" layer="51"/>
<wire x1="-5.875" y1="-7" x2="-5.875" y2="-8" width="0.05" layer="51"/>
<wire x1="-5.875" y1="-8" x2="-6.125" y2="-8" width="0.05" layer="51"/>
<wire x1="-6.125" y1="-8" x2="-6.125" y2="-7" width="0.05" layer="51"/>
<wire x1="-5.375" y1="-7" x2="-5.375" y2="-8" width="0.05" layer="51"/>
<wire x1="-5.375" y1="-8" x2="-5.625" y2="-8" width="0.05" layer="51"/>
<wire x1="-5.625" y1="-8" x2="-5.625" y2="-7" width="0.05" layer="51"/>
<wire x1="-4.875" y1="-7" x2="-4.875" y2="-8" width="0.05" layer="51"/>
<wire x1="-4.875" y1="-8" x2="-5.125" y2="-8" width="0.05" layer="51"/>
<wire x1="-5.125" y1="-8" x2="-5.125" y2="-7" width="0.05" layer="51"/>
<wire x1="-4.375" y1="-7" x2="-4.375" y2="-8" width="0.05" layer="51"/>
<wire x1="-4.375" y1="-8" x2="-4.625" y2="-8" width="0.05" layer="51"/>
<wire x1="-4.625" y1="-8" x2="-4.625" y2="-7" width="0.05" layer="51"/>
<wire x1="-3.875" y1="-7" x2="-3.875" y2="-8" width="0.05" layer="51"/>
<wire x1="-3.875" y1="-8" x2="-4.125" y2="-8" width="0.05" layer="51"/>
<wire x1="-4.125" y1="-8" x2="-4.125" y2="-7" width="0.05" layer="51"/>
<wire x1="-3.375" y1="-7" x2="-3.375" y2="-8" width="0.05" layer="51"/>
<wire x1="-3.375" y1="-8" x2="-3.625" y2="-8" width="0.05" layer="51"/>
<wire x1="-3.625" y1="-8" x2="-3.625" y2="-7" width="0.05" layer="51"/>
<wire x1="-2.875" y1="-7" x2="-2.875" y2="-8" width="0.05" layer="51"/>
<wire x1="-2.875" y1="-8" x2="-3.125" y2="-8" width="0.05" layer="51"/>
<wire x1="-3.125" y1="-8" x2="-3.125" y2="-7" width="0.05" layer="51"/>
<wire x1="-2.375" y1="-7" x2="-2.375" y2="-8" width="0.05" layer="51"/>
<wire x1="-2.375" y1="-8" x2="-2.625" y2="-8" width="0.05" layer="51"/>
<wire x1="-2.625" y1="-8" x2="-2.625" y2="-7" width="0.05" layer="51"/>
<wire x1="-1.875" y1="-7" x2="-1.875" y2="-8" width="0.05" layer="51"/>
<wire x1="-1.875" y1="-8" x2="-2.125" y2="-8" width="0.05" layer="51"/>
<wire x1="-2.125" y1="-8" x2="-2.125" y2="-7" width="0.05" layer="51"/>
<wire x1="-1.375" y1="-7" x2="-1.375" y2="-8" width="0.05" layer="51"/>
<wire x1="-1.375" y1="-8" x2="-1.625" y2="-8" width="0.05" layer="51"/>
<wire x1="-1.625" y1="-8" x2="-1.625" y2="-7" width="0.05" layer="51"/>
<wire x1="-0.875" y1="-7" x2="-0.875" y2="-8" width="0.05" layer="51"/>
<wire x1="-0.875" y1="-8" x2="-1.125" y2="-8" width="0.05" layer="51"/>
<wire x1="-1.125" y1="-8" x2="-1.125" y2="-7" width="0.05" layer="51"/>
<wire x1="-0.375" y1="-7" x2="-0.375" y2="-8" width="0.05" layer="51"/>
<wire x1="-0.375" y1="-8" x2="-0.625" y2="-8" width="0.05" layer="51"/>
<wire x1="-0.625" y1="-8" x2="-0.625" y2="-7" width="0.05" layer="51"/>
<wire x1="0.125" y1="-7" x2="0.125" y2="-8" width="0.05" layer="51"/>
<wire x1="0.125" y1="-8" x2="-0.125" y2="-8" width="0.05" layer="51"/>
<wire x1="-0.125" y1="-8" x2="-0.125" y2="-7" width="0.05" layer="51"/>
<wire x1="0.625" y1="-7" x2="0.625" y2="-8" width="0.05" layer="51"/>
<wire x1="0.625" y1="-8" x2="0.375" y2="-8" width="0.05" layer="51"/>
<wire x1="0.375" y1="-8" x2="0.375" y2="-7" width="0.05" layer="51"/>
<wire x1="1.125" y1="-7" x2="1.125" y2="-8" width="0.05" layer="51"/>
<wire x1="1.125" y1="-8" x2="0.875" y2="-8" width="0.05" layer="51"/>
<wire x1="0.875" y1="-8" x2="0.875" y2="-7" width="0.05" layer="51"/>
<wire x1="1.625" y1="-7" x2="1.625" y2="-8" width="0.05" layer="51"/>
<wire x1="1.625" y1="-8" x2="1.375" y2="-8" width="0.05" layer="51"/>
<wire x1="1.375" y1="-8" x2="1.375" y2="-7" width="0.05" layer="51"/>
<wire x1="2.125" y1="-7" x2="2.125" y2="-8" width="0.05" layer="51"/>
<wire x1="2.125" y1="-8" x2="1.875" y2="-8" width="0.05" layer="51"/>
<wire x1="1.875" y1="-8" x2="1.875" y2="-7" width="0.05" layer="51"/>
<wire x1="2.625" y1="-7" x2="2.625" y2="-8" width="0.05" layer="51"/>
<wire x1="2.625" y1="-8" x2="2.375" y2="-8" width="0.05" layer="51"/>
<wire x1="2.375" y1="-8" x2="2.375" y2="-7" width="0.05" layer="51"/>
<wire x1="3.125" y1="-7" x2="3.125" y2="-8" width="0.05" layer="51"/>
<wire x1="3.125" y1="-8" x2="2.875" y2="-8" width="0.05" layer="51"/>
<wire x1="2.875" y1="-8" x2="2.875" y2="-7" width="0.05" layer="51"/>
<wire x1="3.625" y1="-7" x2="3.625" y2="-8" width="0.05" layer="51"/>
<wire x1="3.625" y1="-8" x2="3.375" y2="-8" width="0.05" layer="51"/>
<wire x1="3.375" y1="-8" x2="3.375" y2="-7" width="0.05" layer="51"/>
<wire x1="4.125" y1="-7" x2="4.125" y2="-8" width="0.05" layer="51"/>
<wire x1="4.125" y1="-8" x2="3.875" y2="-8" width="0.05" layer="51"/>
<wire x1="3.875" y1="-8" x2="3.875" y2="-7" width="0.05" layer="51"/>
<wire x1="4.625" y1="-7" x2="4.625" y2="-8" width="0.05" layer="51"/>
<wire x1="4.625" y1="-8" x2="4.375" y2="-8" width="0.05" layer="51"/>
<wire x1="4.375" y1="-8" x2="4.375" y2="-7" width="0.05" layer="51"/>
<wire x1="5.125" y1="-7" x2="5.125" y2="-8" width="0.05" layer="51"/>
<wire x1="5.125" y1="-8" x2="4.875" y2="-8" width="0.05" layer="51"/>
<wire x1="4.875" y1="-8" x2="4.875" y2="-7" width="0.05" layer="51"/>
<wire x1="5.625" y1="-7" x2="5.625" y2="-8" width="0.05" layer="51"/>
<wire x1="5.625" y1="-8" x2="5.375" y2="-8" width="0.05" layer="51"/>
<wire x1="5.375" y1="-8" x2="5.375" y2="-7" width="0.05" layer="51"/>
<wire x1="6.125" y1="-7" x2="6.125" y2="-8" width="0.05" layer="51"/>
<wire x1="6.125" y1="-8" x2="5.875" y2="-8" width="0.05" layer="51"/>
<wire x1="5.875" y1="-8" x2="5.875" y2="-7" width="0.05" layer="51"/>
<wire x1="7" y1="-5.875" x2="8" y2="-5.875" width="0.05" layer="51"/>
<wire x1="8" y1="-5.875" x2="8" y2="-6.125" width="0.05" layer="51"/>
<wire x1="8" y1="-6.125" x2="7" y2="-6.125" width="0.05" layer="51"/>
<wire x1="7" y1="-5.375" x2="8" y2="-5.375" width="0.05" layer="51"/>
<wire x1="8" y1="-5.375" x2="8" y2="-5.625" width="0.05" layer="51"/>
<wire x1="8" y1="-5.625" x2="7" y2="-5.625" width="0.05" layer="51"/>
<wire x1="7" y1="-4.875" x2="8" y2="-4.875" width="0.05" layer="51"/>
<wire x1="8" y1="-4.875" x2="8" y2="-5.125" width="0.05" layer="51"/>
<wire x1="8" y1="-5.125" x2="7" y2="-5.125" width="0.05" layer="51"/>
<wire x1="7" y1="-4.375" x2="8" y2="-4.375" width="0.05" layer="51"/>
<wire x1="8" y1="-4.375" x2="8" y2="-4.625" width="0.05" layer="51"/>
<wire x1="8" y1="-4.625" x2="7" y2="-4.625" width="0.05" layer="51"/>
<wire x1="7" y1="-3.875" x2="8" y2="-3.875" width="0.05" layer="51"/>
<wire x1="8" y1="-3.875" x2="8" y2="-4.125" width="0.05" layer="51"/>
<wire x1="8" y1="-4.125" x2="7" y2="-4.125" width="0.05" layer="51"/>
<wire x1="7" y1="-3.375" x2="8" y2="-3.375" width="0.05" layer="51"/>
<wire x1="8" y1="-3.375" x2="8" y2="-3.625" width="0.05" layer="51"/>
<wire x1="8" y1="-3.625" x2="7" y2="-3.625" width="0.05" layer="51"/>
<wire x1="7" y1="-2.875" x2="8" y2="-2.875" width="0.05" layer="51"/>
<wire x1="8" y1="-2.875" x2="8" y2="-3.125" width="0.05" layer="51"/>
<wire x1="8" y1="-3.125" x2="7" y2="-3.125" width="0.05" layer="51"/>
<wire x1="7" y1="-2.375" x2="8" y2="-2.375" width="0.05" layer="51"/>
<wire x1="8" y1="-2.375" x2="8" y2="-2.625" width="0.05" layer="51"/>
<wire x1="8" y1="-2.625" x2="7" y2="-2.625" width="0.05" layer="51"/>
<wire x1="7" y1="-1.875" x2="8" y2="-1.875" width="0.05" layer="51"/>
<wire x1="8" y1="-1.875" x2="8" y2="-2.125" width="0.05" layer="51"/>
<wire x1="8" y1="-2.125" x2="7" y2="-2.125" width="0.05" layer="51"/>
<wire x1="7" y1="-1.375" x2="8" y2="-1.375" width="0.05" layer="51"/>
<wire x1="8" y1="-1.375" x2="8" y2="-1.625" width="0.05" layer="51"/>
<wire x1="8" y1="-1.625" x2="7" y2="-1.625" width="0.05" layer="51"/>
<wire x1="7" y1="-0.875" x2="8" y2="-0.875" width="0.05" layer="51"/>
<wire x1="8" y1="-0.875" x2="8" y2="-1.125" width="0.05" layer="51"/>
<wire x1="8" y1="-1.125" x2="7" y2="-1.125" width="0.05" layer="51"/>
<wire x1="7" y1="-0.375" x2="8" y2="-0.375" width="0.05" layer="51"/>
<wire x1="8" y1="-0.375" x2="8" y2="-0.625" width="0.05" layer="51"/>
<wire x1="8" y1="-0.625" x2="7" y2="-0.625" width="0.05" layer="51"/>
<wire x1="7" y1="0.125" x2="8" y2="0.125" width="0.05" layer="51"/>
<wire x1="8" y1="0.125" x2="8" y2="-0.125" width="0.05" layer="51"/>
<wire x1="8" y1="-0.125" x2="7" y2="-0.125" width="0.05" layer="51"/>
<wire x1="7" y1="0.625" x2="8" y2="0.625" width="0.05" layer="51"/>
<wire x1="8" y1="0.625" x2="8" y2="0.375" width="0.05" layer="51"/>
<wire x1="8" y1="0.375" x2="7" y2="0.375" width="0.05" layer="51"/>
<wire x1="7" y1="1.125" x2="8" y2="1.125" width="0.05" layer="51"/>
<wire x1="8" y1="1.125" x2="8" y2="0.875" width="0.05" layer="51"/>
<wire x1="8" y1="0.875" x2="7" y2="0.875" width="0.05" layer="51"/>
<wire x1="7" y1="1.625" x2="8" y2="1.625" width="0.05" layer="51"/>
<wire x1="8" y1="1.625" x2="8" y2="1.375" width="0.05" layer="51"/>
<wire x1="8" y1="1.375" x2="7" y2="1.375" width="0.05" layer="51"/>
<wire x1="7" y1="2.125" x2="8" y2="2.125" width="0.05" layer="51"/>
<wire x1="8" y1="2.125" x2="8" y2="1.875" width="0.05" layer="51"/>
<wire x1="8" y1="1.875" x2="7" y2="1.875" width="0.05" layer="51"/>
<wire x1="7" y1="2.625" x2="8" y2="2.625" width="0.05" layer="51"/>
<wire x1="8" y1="2.625" x2="8" y2="2.375" width="0.05" layer="51"/>
<wire x1="8" y1="2.375" x2="7" y2="2.375" width="0.05" layer="51"/>
<wire x1="7" y1="3.125" x2="8" y2="3.125" width="0.05" layer="51"/>
<wire x1="8" y1="3.125" x2="8" y2="2.875" width="0.05" layer="51"/>
<wire x1="8" y1="2.875" x2="7" y2="2.875" width="0.05" layer="51"/>
<wire x1="7" y1="3.625" x2="8" y2="3.625" width="0.05" layer="51"/>
<wire x1="8" y1="3.625" x2="8" y2="3.375" width="0.05" layer="51"/>
<wire x1="8" y1="3.375" x2="7" y2="3.375" width="0.05" layer="51"/>
<wire x1="7" y1="4.125" x2="8" y2="4.125" width="0.05" layer="51"/>
<wire x1="8" y1="4.125" x2="8" y2="3.875" width="0.05" layer="51"/>
<wire x1="8" y1="3.875" x2="7" y2="3.875" width="0.05" layer="51"/>
<wire x1="7" y1="4.625" x2="8" y2="4.625" width="0.05" layer="51"/>
<wire x1="8" y1="4.625" x2="8" y2="4.375" width="0.05" layer="51"/>
<wire x1="8" y1="4.375" x2="7" y2="4.375" width="0.05" layer="51"/>
<wire x1="7" y1="5.125" x2="8" y2="5.125" width="0.05" layer="51"/>
<wire x1="8" y1="5.125" x2="8" y2="4.875" width="0.05" layer="51"/>
<wire x1="8" y1="4.875" x2="7" y2="4.875" width="0.05" layer="51"/>
<wire x1="7" y1="5.625" x2="8" y2="5.625" width="0.05" layer="51"/>
<wire x1="8" y1="5.625" x2="8" y2="5.375" width="0.05" layer="51"/>
<wire x1="8" y1="5.375" x2="7" y2="5.375" width="0.05" layer="51"/>
<wire x1="7" y1="6.125" x2="8" y2="6.125" width="0.05" layer="51"/>
<wire x1="8" y1="6.125" x2="8" y2="5.875" width="0.05" layer="51"/>
<wire x1="8" y1="5.875" x2="7" y2="5.875" width="0.05" layer="51"/>
<wire x1="5.875" y1="7" x2="5.875" y2="8" width="0.05" layer="51"/>
<wire x1="5.875" y1="8" x2="6.125" y2="8" width="0.05" layer="51"/>
<wire x1="6.125" y1="8" x2="6.125" y2="7" width="0.05" layer="51"/>
<wire x1="5.375" y1="7" x2="5.375" y2="8" width="0.05" layer="51"/>
<wire x1="5.375" y1="8" x2="5.625" y2="8" width="0.05" layer="51"/>
<wire x1="5.625" y1="8" x2="5.625" y2="7" width="0.05" layer="51"/>
<wire x1="4.875" y1="7" x2="4.875" y2="8" width="0.05" layer="51"/>
<wire x1="4.875" y1="8" x2="5.125" y2="8" width="0.05" layer="51"/>
<wire x1="5.125" y1="8" x2="5.125" y2="7" width="0.05" layer="51"/>
<wire x1="4.375" y1="7" x2="4.375" y2="8" width="0.05" layer="51"/>
<wire x1="4.375" y1="8" x2="4.625" y2="8" width="0.05" layer="51"/>
<wire x1="4.625" y1="8" x2="4.625" y2="7" width="0.05" layer="51"/>
<wire x1="3.875" y1="7" x2="3.875" y2="8" width="0.05" layer="51"/>
<wire x1="3.875" y1="8" x2="4.125" y2="8" width="0.05" layer="51"/>
<wire x1="4.125" y1="8" x2="4.125" y2="7" width="0.05" layer="51"/>
<wire x1="3.375" y1="7" x2="3.375" y2="8" width="0.05" layer="51"/>
<wire x1="3.375" y1="8" x2="3.625" y2="8" width="0.05" layer="51"/>
<wire x1="3.625" y1="8" x2="3.625" y2="7" width="0.05" layer="51"/>
<wire x1="2.875" y1="7" x2="2.875" y2="8" width="0.05" layer="51"/>
<wire x1="2.875" y1="8" x2="3.125" y2="8" width="0.05" layer="51"/>
<wire x1="3.125" y1="8" x2="3.125" y2="7" width="0.05" layer="51"/>
<wire x1="2.375" y1="7" x2="2.375" y2="8" width="0.05" layer="51"/>
<wire x1="2.375" y1="8" x2="2.625" y2="8" width="0.05" layer="51"/>
<wire x1="2.625" y1="8" x2="2.625" y2="7" width="0.05" layer="51"/>
<wire x1="1.875" y1="7" x2="1.875" y2="8" width="0.05" layer="51"/>
<wire x1="1.875" y1="8" x2="2.125" y2="8" width="0.05" layer="51"/>
<wire x1="2.125" y1="8" x2="2.125" y2="7" width="0.05" layer="51"/>
<wire x1="1.375" y1="7" x2="1.375" y2="8" width="0.05" layer="51"/>
<wire x1="1.375" y1="8" x2="1.625" y2="8" width="0.05" layer="51"/>
<wire x1="1.625" y1="8" x2="1.625" y2="7" width="0.05" layer="51"/>
<wire x1="0.875" y1="7" x2="0.875" y2="8" width="0.05" layer="51"/>
<wire x1="0.875" y1="8" x2="1.125" y2="8" width="0.05" layer="51"/>
<wire x1="1.125" y1="8" x2="1.125" y2="7" width="0.05" layer="51"/>
<wire x1="0.375" y1="7" x2="0.375" y2="8" width="0.05" layer="51"/>
<wire x1="0.375" y1="8" x2="0.625" y2="8" width="0.05" layer="51"/>
<wire x1="0.625" y1="8" x2="0.625" y2="7" width="0.05" layer="51"/>
<wire x1="-0.125" y1="7" x2="-0.125" y2="8" width="0.05" layer="51"/>
<wire x1="-0.125" y1="8" x2="0.125" y2="8" width="0.05" layer="51"/>
<wire x1="0.125" y1="8" x2="0.125" y2="7" width="0.05" layer="51"/>
<wire x1="-0.625" y1="7" x2="-0.625" y2="8" width="0.05" layer="51"/>
<wire x1="-0.625" y1="8" x2="-0.375" y2="8" width="0.05" layer="51"/>
<wire x1="-0.375" y1="8" x2="-0.375" y2="7" width="0.05" layer="51"/>
<wire x1="-1.125" y1="7" x2="-1.125" y2="8" width="0.05" layer="51"/>
<wire x1="-1.125" y1="8" x2="-0.875" y2="8" width="0.05" layer="51"/>
<wire x1="-0.875" y1="8" x2="-0.875" y2="7" width="0.05" layer="51"/>
<wire x1="-1.625" y1="7" x2="-1.625" y2="8" width="0.05" layer="51"/>
<wire x1="-1.625" y1="8" x2="-1.375" y2="8" width="0.05" layer="51"/>
<wire x1="-1.375" y1="8" x2="-1.375" y2="7" width="0.05" layer="51"/>
<wire x1="-2.125" y1="7" x2="-2.125" y2="8" width="0.05" layer="51"/>
<wire x1="-2.125" y1="8" x2="-1.875" y2="8" width="0.05" layer="51"/>
<wire x1="-1.875" y1="8" x2="-1.875" y2="7" width="0.05" layer="51"/>
<wire x1="-2.625" y1="7" x2="-2.625" y2="8" width="0.05" layer="51"/>
<wire x1="-2.625" y1="8" x2="-2.375" y2="8" width="0.05" layer="51"/>
<wire x1="-2.375" y1="8" x2="-2.375" y2="7" width="0.05" layer="51"/>
<wire x1="-3.125" y1="7" x2="-3.125" y2="8" width="0.05" layer="51"/>
<wire x1="-3.125" y1="8" x2="-2.875" y2="8" width="0.05" layer="51"/>
<wire x1="-2.875" y1="8" x2="-2.875" y2="7" width="0.05" layer="51"/>
<wire x1="-3.625" y1="7" x2="-3.625" y2="8" width="0.05" layer="51"/>
<wire x1="-3.625" y1="8" x2="-3.375" y2="8" width="0.05" layer="51"/>
<wire x1="-3.375" y1="8" x2="-3.375" y2="7" width="0.05" layer="51"/>
<wire x1="-4.125" y1="7" x2="-4.125" y2="8" width="0.05" layer="51"/>
<wire x1="-4.125" y1="8" x2="-3.875" y2="8" width="0.05" layer="51"/>
<wire x1="-3.875" y1="8" x2="-3.875" y2="7" width="0.05" layer="51"/>
<wire x1="-4.625" y1="7" x2="-4.625" y2="8" width="0.05" layer="51"/>
<wire x1="-4.625" y1="8" x2="-4.375" y2="8" width="0.05" layer="51"/>
<wire x1="-4.375" y1="8" x2="-4.375" y2="7" width="0.05" layer="51"/>
<wire x1="-5.125" y1="7" x2="-5.125" y2="8" width="0.05" layer="51"/>
<wire x1="-5.125" y1="8" x2="-4.875" y2="8" width="0.05" layer="51"/>
<wire x1="-4.875" y1="8" x2="-4.875" y2="7" width="0.05" layer="51"/>
<wire x1="-5.625" y1="7" x2="-5.625" y2="8" width="0.05" layer="51"/>
<wire x1="-5.625" y1="8" x2="-5.375" y2="8" width="0.05" layer="51"/>
<wire x1="-5.375" y1="8" x2="-5.375" y2="7" width="0.05" layer="51"/>
<wire x1="-5.875" y1="7" x2="-6.125" y2="7" width="0.05" layer="21"/>
<wire x1="-6.125" y1="7" x2="-6.125" y2="8" width="0.05" layer="51"/>
<wire x1="-6.125" y1="8" x2="-5.875" y2="8" width="0.05" layer="51"/>
<wire x1="-5.875" y1="8" x2="-5.875" y2="7" width="0.05" layer="51"/>
<rectangle x1="-9" y1="5.85" x2="-7.5" y2="6.15" layer="29"/>
<rectangle x1="-9" y1="5.35" x2="-7.5" y2="5.65" layer="29"/>
<rectangle x1="-9" y1="4.85" x2="-7.5" y2="5.15" layer="29"/>
<rectangle x1="-9" y1="4.35" x2="-7.5" y2="4.65" layer="29"/>
<rectangle x1="-9" y1="3.85" x2="-7.5" y2="4.15" layer="29"/>
<rectangle x1="-9" y1="3.35" x2="-7.5" y2="3.65" layer="29"/>
<rectangle x1="-9" y1="2.85" x2="-7.5" y2="3.15" layer="29"/>
<rectangle x1="-9" y1="2.35" x2="-7.5" y2="2.65" layer="29"/>
<rectangle x1="-9" y1="1.85" x2="-7.5" y2="2.15" layer="29"/>
<rectangle x1="-9" y1="1.35" x2="-7.5" y2="1.65" layer="29"/>
<rectangle x1="-9" y1="0.85" x2="-7.5" y2="1.15" layer="29"/>
<rectangle x1="-9" y1="0.35" x2="-7.5" y2="0.65" layer="29"/>
<rectangle x1="-9" y1="-0.15" x2="-7.5" y2="0.15" layer="29"/>
<rectangle x1="-9" y1="-0.65" x2="-7.5" y2="-0.35" layer="29"/>
<rectangle x1="-9" y1="-1.15" x2="-7.5" y2="-0.85" layer="29"/>
<rectangle x1="-9" y1="-1.65" x2="-7.5" y2="-1.35" layer="29"/>
<rectangle x1="-9" y1="-2.15" x2="-7.5" y2="-1.85" layer="29"/>
<rectangle x1="-9" y1="-2.65" x2="-7.5" y2="-2.35" layer="29"/>
<rectangle x1="-9" y1="-3.15" x2="-7.5" y2="-2.85" layer="29"/>
<rectangle x1="-9" y1="-3.65" x2="-7.5" y2="-3.35" layer="29"/>
<rectangle x1="-9" y1="-4.15" x2="-7.5" y2="-3.85" layer="29"/>
<rectangle x1="-9" y1="-4.65" x2="-7.5" y2="-4.35" layer="29"/>
<rectangle x1="-9" y1="-5.15" x2="-7.5" y2="-4.85" layer="29"/>
<rectangle x1="-9" y1="-5.65" x2="-7.5" y2="-5.35" layer="29"/>
<rectangle x1="-9" y1="-6.15" x2="-7.5" y2="-5.85" layer="29"/>
<rectangle x1="-6.75" y1="-8.4" x2="-5.25" y2="-8.1" layer="29" rot="R90"/>
<rectangle x1="-6.25" y1="-8.4" x2="-4.75" y2="-8.1" layer="29" rot="R90"/>
<rectangle x1="-5.75" y1="-8.4" x2="-4.25" y2="-8.1" layer="29" rot="R90"/>
<rectangle x1="-5.25" y1="-8.4" x2="-3.75" y2="-8.1" layer="29" rot="R90"/>
<rectangle x1="-4.75" y1="-8.4" x2="-3.25" y2="-8.1" layer="29" rot="R90"/>
<rectangle x1="-4.25" y1="-8.4" x2="-2.75" y2="-8.1" layer="29" rot="R90"/>
<rectangle x1="-3.75" y1="-8.4" x2="-2.25" y2="-8.1" layer="29" rot="R90"/>
<rectangle x1="-3.25" y1="-8.4" x2="-1.75" y2="-8.1" layer="29" rot="R90"/>
<rectangle x1="-2.75" y1="-8.4" x2="-1.25" y2="-8.1" layer="29" rot="R90"/>
<rectangle x1="-2.25" y1="-8.4" x2="-0.75" y2="-8.1" layer="29" rot="R90"/>
<rectangle x1="-1.75" y1="-8.4" x2="-0.25" y2="-8.1" layer="29" rot="R90"/>
<rectangle x1="-1.25" y1="-8.4" x2="0.25" y2="-8.1" layer="29" rot="R90"/>
<rectangle x1="-0.75" y1="-8.4" x2="0.75" y2="-8.1" layer="29" rot="R90"/>
<rectangle x1="-0.25" y1="-8.4" x2="1.25" y2="-8.1" layer="29" rot="R90"/>
<rectangle x1="0.25" y1="-8.4" x2="1.75" y2="-8.1" layer="29" rot="R90"/>
<rectangle x1="0.75" y1="-8.4" x2="2.25" y2="-8.1" layer="29" rot="R90"/>
<rectangle x1="1.25" y1="-8.4" x2="2.75" y2="-8.1" layer="29" rot="R90"/>
<rectangle x1="1.75" y1="-8.4" x2="3.25" y2="-8.1" layer="29" rot="R90"/>
<rectangle x1="2.25" y1="-8.4" x2="3.75" y2="-8.1" layer="29" rot="R90"/>
<rectangle x1="2.75" y1="-8.4" x2="4.25" y2="-8.1" layer="29" rot="R90"/>
<rectangle x1="3.25" y1="-8.4" x2="4.75" y2="-8.1" layer="29" rot="R90"/>
<rectangle x1="3.75" y1="-8.4" x2="5.25" y2="-8.1" layer="29" rot="R90"/>
<rectangle x1="4.25" y1="-8.4" x2="5.75" y2="-8.1" layer="29" rot="R90"/>
<rectangle x1="4.75" y1="-8.4" x2="6.25" y2="-8.1" layer="29" rot="R90"/>
<rectangle x1="5.25" y1="-8.4" x2="6.75" y2="-8.1" layer="29" rot="R90"/>
<rectangle x1="7.5" y1="-6.15" x2="9" y2="-5.85" layer="29" rot="R180"/>
<rectangle x1="7.5" y1="-5.65" x2="9" y2="-5.35" layer="29" rot="R180"/>
<rectangle x1="7.5" y1="-5.15" x2="9" y2="-4.85" layer="29" rot="R180"/>
<rectangle x1="7.5" y1="-4.65" x2="9" y2="-4.35" layer="29" rot="R180"/>
<rectangle x1="7.5" y1="-4.15" x2="9" y2="-3.85" layer="29" rot="R180"/>
<rectangle x1="7.5" y1="-3.65" x2="9" y2="-3.35" layer="29" rot="R180"/>
<rectangle x1="7.5" y1="-3.15" x2="9" y2="-2.85" layer="29" rot="R180"/>
<rectangle x1="7.5" y1="-2.65" x2="9" y2="-2.35" layer="29" rot="R180"/>
<rectangle x1="7.5" y1="-2.15" x2="9" y2="-1.85" layer="29" rot="R180"/>
<rectangle x1="7.5" y1="-1.65" x2="9" y2="-1.35" layer="29" rot="R180"/>
<rectangle x1="7.5" y1="-1.15" x2="9" y2="-0.85" layer="29" rot="R180"/>
<rectangle x1="7.5" y1="-0.65" x2="9" y2="-0.35" layer="29" rot="R180"/>
<rectangle x1="7.5" y1="-0.15" x2="9" y2="0.15" layer="29" rot="R180"/>
<rectangle x1="7.5" y1="0.35" x2="9" y2="0.65" layer="29" rot="R180"/>
<rectangle x1="7.5" y1="0.85" x2="9" y2="1.15" layer="29" rot="R180"/>
<rectangle x1="7.5" y1="1.35" x2="9" y2="1.65" layer="29" rot="R180"/>
<rectangle x1="7.5" y1="1.85" x2="9" y2="2.15" layer="29" rot="R180"/>
<rectangle x1="7.5" y1="2.35" x2="9" y2="2.65" layer="29" rot="R180"/>
<rectangle x1="7.5" y1="2.85" x2="9" y2="3.15" layer="29" rot="R180"/>
<rectangle x1="7.5" y1="3.35" x2="9" y2="3.65" layer="29" rot="R180"/>
<rectangle x1="7.5" y1="3.85" x2="9" y2="4.15" layer="29" rot="R180"/>
<rectangle x1="7.5" y1="4.35" x2="9" y2="4.65" layer="29" rot="R180"/>
<rectangle x1="7.5" y1="4.85" x2="9" y2="5.15" layer="29" rot="R180"/>
<rectangle x1="7.5" y1="5.35" x2="9" y2="5.65" layer="29" rot="R180"/>
<rectangle x1="7.5" y1="5.85" x2="9" y2="6.15" layer="29" rot="R180"/>
<rectangle x1="5.25" y1="8.1" x2="6.75" y2="8.4" layer="29" rot="R270"/>
<rectangle x1="4.75" y1="8.1" x2="6.25" y2="8.4" layer="29" rot="R270"/>
<rectangle x1="4.25" y1="8.1" x2="5.75" y2="8.4" layer="29" rot="R270"/>
<rectangle x1="3.75" y1="8.1" x2="5.25" y2="8.4" layer="29" rot="R270"/>
<rectangle x1="3.25" y1="8.1" x2="4.75" y2="8.4" layer="29" rot="R270"/>
<rectangle x1="2.75" y1="8.1" x2="4.25" y2="8.4" layer="29" rot="R270"/>
<rectangle x1="2.25" y1="8.1" x2="3.75" y2="8.4" layer="29" rot="R270"/>
<rectangle x1="1.75" y1="8.1" x2="3.25" y2="8.4" layer="29" rot="R270"/>
<rectangle x1="1.25" y1="8.1" x2="2.75" y2="8.4" layer="29" rot="R270"/>
<rectangle x1="0.75" y1="8.1" x2="2.25" y2="8.4" layer="29" rot="R270"/>
<rectangle x1="0.25" y1="8.1" x2="1.75" y2="8.4" layer="29" rot="R270"/>
<rectangle x1="-0.25" y1="8.1" x2="1.25" y2="8.4" layer="29" rot="R270"/>
<rectangle x1="-0.75" y1="8.1" x2="0.75" y2="8.4" layer="29" rot="R270"/>
<rectangle x1="-1.25" y1="8.1" x2="0.25" y2="8.4" layer="29" rot="R270"/>
<rectangle x1="-1.75" y1="8.1" x2="-0.25" y2="8.4" layer="29" rot="R270"/>
<rectangle x1="-2.25" y1="8.1" x2="-0.75" y2="8.4" layer="29" rot="R270"/>
<rectangle x1="-2.75" y1="8.1" x2="-1.25" y2="8.4" layer="29" rot="R270"/>
<rectangle x1="-3.25" y1="8.1" x2="-1.75" y2="8.4" layer="29" rot="R270"/>
<rectangle x1="-3.75" y1="8.1" x2="-2.25" y2="8.4" layer="29" rot="R270"/>
<rectangle x1="-4.25" y1="8.1" x2="-2.75" y2="8.4" layer="29" rot="R270"/>
<rectangle x1="-4.75" y1="8.1" x2="-3.25" y2="8.4" layer="29" rot="R270"/>
<rectangle x1="-5.25" y1="8.1" x2="-3.75" y2="8.4" layer="29" rot="R270"/>
<rectangle x1="-5.75" y1="8.1" x2="-4.25" y2="8.4" layer="29" rot="R270"/>
<rectangle x1="-6.25" y1="8.1" x2="-4.75" y2="8.4" layer="29" rot="R270"/>
<rectangle x1="-6.75" y1="8.1" x2="-5.25" y2="8.4" layer="29" rot="R270"/>
<rectangle x1="-7.45" y1="5.875" x2="-7" y2="6.125" layer="21"/>
<rectangle x1="-7.45" y1="5.375" x2="-7" y2="5.625" layer="21"/>
<rectangle x1="-7.45" y1="4.875" x2="-7" y2="5.125" layer="21"/>
<rectangle x1="-7.45" y1="4.375" x2="-7" y2="4.625" layer="21"/>
<rectangle x1="-7.45" y1="3.875" x2="-7" y2="4.125" layer="21"/>
<rectangle x1="-7.45" y1="3.375" x2="-7" y2="3.625" layer="21"/>
<rectangle x1="-7.45" y1="2.875" x2="-7" y2="3.125" layer="21"/>
<rectangle x1="-7.45" y1="2.375" x2="-7" y2="2.625" layer="21"/>
<rectangle x1="-7.45" y1="1.875" x2="-7" y2="2.125" layer="21"/>
<rectangle x1="-7.45" y1="1.375" x2="-7" y2="1.625" layer="21"/>
<rectangle x1="-7.45" y1="0.875" x2="-7" y2="1.125" layer="21"/>
<rectangle x1="-7.45" y1="0.375" x2="-7" y2="0.625" layer="21"/>
<rectangle x1="-7.45" y1="-0.125" x2="-7" y2="0.125" layer="21"/>
<rectangle x1="-7.45" y1="-0.625" x2="-7" y2="-0.375" layer="21"/>
<rectangle x1="-7.45" y1="-1.125" x2="-7" y2="-0.875" layer="21"/>
<rectangle x1="-7.45" y1="-1.625" x2="-7" y2="-1.375" layer="21"/>
<rectangle x1="-7.45" y1="-2.125" x2="-7" y2="-1.875" layer="21"/>
<rectangle x1="-7.45" y1="-2.625" x2="-7" y2="-2.375" layer="21"/>
<rectangle x1="-7.45" y1="-3.125" x2="-7" y2="-2.875" layer="21"/>
<rectangle x1="-7.45" y1="-3.625" x2="-7" y2="-3.375" layer="21"/>
<rectangle x1="-7.45" y1="-4.125" x2="-7" y2="-3.875" layer="21"/>
<rectangle x1="-7.45" y1="-4.625" x2="-7" y2="-4.375" layer="21"/>
<rectangle x1="-7.45" y1="-5.125" x2="-7" y2="-4.875" layer="21"/>
<rectangle x1="-7.45" y1="-5.625" x2="-7" y2="-5.375" layer="21"/>
<rectangle x1="-7.45" y1="-6.125" x2="-7" y2="-5.875" layer="21"/>
<rectangle x1="-6.225" y1="-7.35" x2="-5.775" y2="-7.1" layer="21" rot="R90"/>
<rectangle x1="-5.725" y1="-7.35" x2="-5.275" y2="-7.1" layer="21" rot="R90"/>
<rectangle x1="-5.225" y1="-7.35" x2="-4.775" y2="-7.1" layer="21" rot="R90"/>
<rectangle x1="-4.725" y1="-7.35" x2="-4.275" y2="-7.1" layer="21" rot="R90"/>
<rectangle x1="-4.225" y1="-7.35" x2="-3.775" y2="-7.1" layer="21" rot="R90"/>
<rectangle x1="-3.725" y1="-7.35" x2="-3.275" y2="-7.1" layer="21" rot="R90"/>
<rectangle x1="-3.225" y1="-7.35" x2="-2.775" y2="-7.1" layer="21" rot="R90"/>
<rectangle x1="-2.725" y1="-7.35" x2="-2.275" y2="-7.1" layer="21" rot="R90"/>
<rectangle x1="-2.225" y1="-7.35" x2="-1.775" y2="-7.1" layer="21" rot="R90"/>
<rectangle x1="-1.725" y1="-7.35" x2="-1.275" y2="-7.1" layer="21" rot="R90"/>
<rectangle x1="-1.225" y1="-7.35" x2="-0.775" y2="-7.1" layer="21" rot="R90"/>
<rectangle x1="-0.725" y1="-7.35" x2="-0.275" y2="-7.1" layer="21" rot="R90"/>
<rectangle x1="-0.225" y1="-7.35" x2="0.225" y2="-7.1" layer="21" rot="R90"/>
<rectangle x1="0.275" y1="-7.35" x2="0.725" y2="-7.1" layer="21" rot="R90"/>
<rectangle x1="0.775" y1="-7.35" x2="1.225" y2="-7.1" layer="21" rot="R90"/>
<rectangle x1="1.275" y1="-7.35" x2="1.725" y2="-7.1" layer="21" rot="R90"/>
<rectangle x1="1.775" y1="-7.35" x2="2.225" y2="-7.1" layer="21" rot="R90"/>
<rectangle x1="2.275" y1="-7.35" x2="2.725" y2="-7.1" layer="21" rot="R90"/>
<rectangle x1="2.775" y1="-7.35" x2="3.225" y2="-7.1" layer="21" rot="R90"/>
<rectangle x1="3.275" y1="-7.35" x2="3.725" y2="-7.1" layer="21" rot="R90"/>
<rectangle x1="3.775" y1="-7.35" x2="4.225" y2="-7.1" layer="21" rot="R90"/>
<rectangle x1="4.275" y1="-7.35" x2="4.725" y2="-7.1" layer="21" rot="R90"/>
<rectangle x1="4.775" y1="-7.35" x2="5.225" y2="-7.1" layer="21" rot="R90"/>
<rectangle x1="5.275" y1="-7.35" x2="5.725" y2="-7.1" layer="21" rot="R90"/>
<rectangle x1="5.775" y1="-7.35" x2="6.225" y2="-7.1" layer="21" rot="R90"/>
<rectangle x1="7" y1="-6.125" x2="7.45" y2="-5.875" layer="21" rot="R180"/>
<rectangle x1="7" y1="-5.625" x2="7.45" y2="-5.375" layer="21" rot="R180"/>
<rectangle x1="7" y1="-5.125" x2="7.45" y2="-4.875" layer="21" rot="R180"/>
<rectangle x1="7" y1="-4.625" x2="7.45" y2="-4.375" layer="21" rot="R180"/>
<rectangle x1="7" y1="-4.125" x2="7.45" y2="-3.875" layer="21" rot="R180"/>
<rectangle x1="7" y1="-3.625" x2="7.45" y2="-3.375" layer="21" rot="R180"/>
<rectangle x1="7" y1="-3.125" x2="7.45" y2="-2.875" layer="21" rot="R180"/>
<rectangle x1="7" y1="-2.625" x2="7.45" y2="-2.375" layer="21" rot="R180"/>
<rectangle x1="7" y1="-2.125" x2="7.45" y2="-1.875" layer="21" rot="R180"/>
<rectangle x1="7" y1="-1.625" x2="7.45" y2="-1.375" layer="21" rot="R180"/>
<rectangle x1="7" y1="-1.125" x2="7.45" y2="-0.875" layer="21" rot="R180"/>
<rectangle x1="7" y1="-0.625" x2="7.45" y2="-0.375" layer="21" rot="R180"/>
<rectangle x1="7" y1="-0.125" x2="7.45" y2="0.125" layer="21" rot="R180"/>
<rectangle x1="7" y1="0.375" x2="7.45" y2="0.625" layer="21" rot="R180"/>
<rectangle x1="7" y1="0.875" x2="7.45" y2="1.125" layer="21" rot="R180"/>
<rectangle x1="7" y1="1.375" x2="7.45" y2="1.625" layer="21" rot="R180"/>
<rectangle x1="7" y1="1.875" x2="7.45" y2="2.125" layer="21" rot="R180"/>
<rectangle x1="7" y1="2.375" x2="7.45" y2="2.625" layer="21" rot="R180"/>
<rectangle x1="7" y1="2.875" x2="7.45" y2="3.125" layer="21" rot="R180"/>
<rectangle x1="7" y1="3.375" x2="7.45" y2="3.625" layer="21" rot="R180"/>
<rectangle x1="7" y1="3.875" x2="7.45" y2="4.125" layer="21" rot="R180"/>
<rectangle x1="7" y1="4.375" x2="7.45" y2="4.625" layer="21" rot="R180"/>
<rectangle x1="7" y1="4.875" x2="7.45" y2="5.125" layer="21" rot="R180"/>
<rectangle x1="7" y1="5.375" x2="7.45" y2="5.625" layer="21" rot="R180"/>
<rectangle x1="7" y1="5.875" x2="7.45" y2="6.125" layer="21" rot="R180"/>
<rectangle x1="5.775" y1="7.1" x2="6.225" y2="7.35" layer="21" rot="R270"/>
<rectangle x1="5.275" y1="7.1" x2="5.725" y2="7.35" layer="21" rot="R270"/>
<rectangle x1="4.775" y1="7.1" x2="5.225" y2="7.35" layer="21" rot="R270"/>
<rectangle x1="4.275" y1="7.1" x2="4.725" y2="7.35" layer="21" rot="R270"/>
<rectangle x1="3.775" y1="7.1" x2="4.225" y2="7.35" layer="21" rot="R270"/>
<rectangle x1="3.275" y1="7.1" x2="3.725" y2="7.35" layer="21" rot="R270"/>
<rectangle x1="2.775" y1="7.1" x2="3.225" y2="7.35" layer="21" rot="R270"/>
<rectangle x1="2.275" y1="7.1" x2="2.725" y2="7.35" layer="21" rot="R270"/>
<rectangle x1="1.775" y1="7.1" x2="2.225" y2="7.35" layer="21" rot="R270"/>
<rectangle x1="1.275" y1="7.1" x2="1.725" y2="7.35" layer="21" rot="R270"/>
<rectangle x1="0.775" y1="7.1" x2="1.225" y2="7.35" layer="21" rot="R270"/>
<rectangle x1="0.275" y1="7.1" x2="0.725" y2="7.35" layer="21" rot="R270"/>
<rectangle x1="-0.225" y1="7.1" x2="0.225" y2="7.35" layer="21" rot="R270"/>
<rectangle x1="-0.725" y1="7.1" x2="-0.275" y2="7.35" layer="21" rot="R270"/>
<rectangle x1="-1.225" y1="7.1" x2="-0.775" y2="7.35" layer="21" rot="R270"/>
<rectangle x1="-1.725" y1="7.1" x2="-1.275" y2="7.35" layer="21" rot="R270"/>
<rectangle x1="-2.225" y1="7.1" x2="-1.775" y2="7.35" layer="21" rot="R270"/>
<rectangle x1="-2.725" y1="7.1" x2="-2.275" y2="7.35" layer="21" rot="R270"/>
<rectangle x1="-3.225" y1="7.1" x2="-2.775" y2="7.35" layer="21" rot="R270"/>
<rectangle x1="-3.725" y1="7.1" x2="-3.275" y2="7.35" layer="21" rot="R270"/>
<rectangle x1="-4.225" y1="7.1" x2="-3.775" y2="7.35" layer="21" rot="R270"/>
<rectangle x1="-4.725" y1="7.1" x2="-4.275" y2="7.35" layer="21" rot="R270"/>
<rectangle x1="-5.225" y1="7.1" x2="-4.775" y2="7.35" layer="21" rot="R270"/>
<rectangle x1="-5.725" y1="7.1" x2="-5.275" y2="7.35" layer="21" rot="R270"/>
<rectangle x1="-6.225" y1="7.1" x2="-5.775" y2="7.35" layer="21" rot="R270"/>
<smd name="1" x="-8.25" y="6" dx="1.5" dy="0.3" layer="1" stop="no"/>
<smd name="2" x="-8.25" y="5.5" dx="1.5" dy="0.3" layer="1" stop="no"/>
<smd name="3" x="-8.25" y="5" dx="1.5" dy="0.3" layer="1" stop="no"/>
<smd name="4" x="-8.25" y="4.5" dx="1.5" dy="0.3" layer="1" stop="no"/>
<smd name="5" x="-8.25" y="4" dx="1.5" dy="0.3" layer="1" stop="no"/>
<smd name="6" x="-8.25" y="3.5" dx="1.5" dy="0.3" layer="1" stop="no"/>
<smd name="7" x="-8.25" y="3" dx="1.5" dy="0.3" layer="1" stop="no"/>
<smd name="8" x="-8.25" y="2.5" dx="1.5" dy="0.3" layer="1" stop="no"/>
<smd name="9" x="-8.25" y="2" dx="1.5" dy="0.3" layer="1" stop="no"/>
<smd name="10" x="-8.25" y="1.5" dx="1.5" dy="0.3" layer="1" stop="no"/>
<smd name="11" x="-8.25" y="1" dx="1.5" dy="0.3" layer="1" stop="no"/>
<smd name="12" x="-8.25" y="0.5" dx="1.5" dy="0.3" layer="1" stop="no"/>
<smd name="13" x="-8.25" y="0" dx="1.5" dy="0.3" layer="1" stop="no"/>
<smd name="14" x="-8.25" y="-0.5" dx="1.5" dy="0.3" layer="1" stop="no"/>
<smd name="15" x="-8.25" y="-1" dx="1.5" dy="0.3" layer="1" stop="no"/>
<smd name="16" x="-8.25" y="-1.5" dx="1.5" dy="0.3" layer="1" stop="no"/>
<smd name="17" x="-8.25" y="-2" dx="1.5" dy="0.3" layer="1" stop="no"/>
<smd name="18" x="-8.25" y="-2.5" dx="1.5" dy="0.3" layer="1" stop="no"/>
<smd name="19" x="-8.25" y="-3" dx="1.5" dy="0.3" layer="1" stop="no"/>
<smd name="20" x="-8.25" y="-3.5" dx="1.5" dy="0.3" layer="1" stop="no"/>
<smd name="21" x="-8.25" y="-4" dx="1.5" dy="0.3" layer="1" stop="no"/>
<smd name="22" x="-8.25" y="-4.5" dx="1.5" dy="0.3" layer="1" stop="no"/>
<smd name="23" x="-8.25" y="-5" dx="1.5" dy="0.3" layer="1" stop="no"/>
<smd name="24" x="-8.25" y="-5.5" dx="1.5" dy="0.3" layer="1" stop="no"/>
<smd name="25" x="-8.25" y="-6" dx="1.5" dy="0.3" layer="1" stop="no"/>
<smd name="26" x="-6" y="-8.25" dx="1.5" dy="0.3" layer="1" rot="R90" stop="no"/>
<smd name="27" x="-5.5" y="-8.25" dx="1.5" dy="0.3" layer="1" rot="R90" stop="no"/>
<smd name="28" x="-5" y="-8.25" dx="1.5" dy="0.3" layer="1" rot="R90" stop="no"/>
<smd name="29" x="-4.5" y="-8.25" dx="1.5" dy="0.3" layer="1" rot="R90" stop="no"/>
<smd name="30" x="-4" y="-8.25" dx="1.5" dy="0.3" layer="1" rot="R90" stop="no"/>
<smd name="31" x="-3.5" y="-8.25" dx="1.5" dy="0.3" layer="1" rot="R90" stop="no"/>
<smd name="32" x="-3" y="-8.25" dx="1.5" dy="0.3" layer="1" rot="R90" stop="no"/>
<smd name="33" x="-2.5" y="-8.25" dx="1.5" dy="0.3" layer="1" rot="R90" stop="no"/>
<smd name="34" x="-2" y="-8.25" dx="1.5" dy="0.3" layer="1" rot="R90" stop="no"/>
<smd name="35" x="-1.5" y="-8.25" dx="1.5" dy="0.3" layer="1" rot="R90" stop="no"/>
<smd name="36" x="-1" y="-8.25" dx="1.5" dy="0.3" layer="1" rot="R90" stop="no"/>
<smd name="37" x="-0.5" y="-8.25" dx="1.5" dy="0.3" layer="1" rot="R90" stop="no"/>
<smd name="38" x="0" y="-8.25" dx="1.5" dy="0.3" layer="1" rot="R90" stop="no"/>
<smd name="39" x="0.5" y="-8.25" dx="1.5" dy="0.3" layer="1" rot="R90" stop="no"/>
<smd name="40" x="1" y="-8.25" dx="1.5" dy="0.3" layer="1" rot="R90" stop="no"/>
<smd name="41" x="1.5" y="-8.25" dx="1.5" dy="0.3" layer="1" rot="R90" stop="no"/>
<smd name="42" x="2" y="-8.25" dx="1.5" dy="0.3" layer="1" rot="R90" stop="no"/>
<smd name="43" x="2.5" y="-8.25" dx="1.5" dy="0.3" layer="1" rot="R90" stop="no"/>
<smd name="44" x="3" y="-8.25" dx="1.5" dy="0.3" layer="1" rot="R90" stop="no"/>
<smd name="45" x="3.5" y="-8.25" dx="1.5" dy="0.3" layer="1" rot="R90" stop="no"/>
<smd name="46" x="4" y="-8.25" dx="1.5" dy="0.3" layer="1" rot="R90" stop="no"/>
<smd name="47" x="4.5" y="-8.25" dx="1.5" dy="0.3" layer="1" rot="R90" stop="no"/>
<smd name="48" x="5" y="-8.25" dx="1.5" dy="0.3" layer="1" rot="R90" stop="no"/>
<smd name="49" x="5.5" y="-8.25" dx="1.5" dy="0.3" layer="1" rot="R90" stop="no"/>
<smd name="50" x="6" y="-8.25" dx="1.5" dy="0.3" layer="1" rot="R90" stop="no"/>
<smd name="51" x="8.25" y="-6" dx="1.5" dy="0.3" layer="1" rot="R180" stop="no"/>
<smd name="52" x="8.25" y="-5.5" dx="1.5" dy="0.3" layer="1" rot="R180" stop="no"/>
<smd name="53" x="8.25" y="-5" dx="1.5" dy="0.3" layer="1" rot="R180" stop="no"/>
<smd name="54" x="8.25" y="-4.5" dx="1.5" dy="0.3" layer="1" rot="R180" stop="no"/>
<smd name="55" x="8.25" y="-4" dx="1.5" dy="0.3" layer="1" rot="R180" stop="no"/>
<smd name="56" x="8.25" y="-3.5" dx="1.5" dy="0.3" layer="1" rot="R180" stop="no"/>
<smd name="57" x="8.25" y="-3" dx="1.5" dy="0.3" layer="1" rot="R180" stop="no"/>
<smd name="58" x="8.25" y="-2.5" dx="1.5" dy="0.3" layer="1" rot="R180" stop="no"/>
<smd name="59" x="8.25" y="-2" dx="1.5" dy="0.3" layer="1" rot="R180" stop="no"/>
<smd name="60" x="8.25" y="-1.5" dx="1.5" dy="0.3" layer="1" rot="R180" stop="no"/>
<smd name="61" x="8.25" y="-1" dx="1.5" dy="0.3" layer="1" rot="R180" stop="no"/>
<smd name="62" x="8.25" y="-0.5" dx="1.5" dy="0.3" layer="1" rot="R180" stop="no"/>
<smd name="63" x="8.25" y="0" dx="1.5" dy="0.3" layer="1" rot="R180" stop="no"/>
<smd name="64" x="8.25" y="0.5" dx="1.5" dy="0.3" layer="1" rot="R180" stop="no"/>
<smd name="65" x="8.25" y="1" dx="1.5" dy="0.3" layer="1" rot="R180" stop="no"/>
<smd name="66" x="8.25" y="1.5" dx="1.5" dy="0.3" layer="1" rot="R180" stop="no"/>
<smd name="67" x="8.25" y="2" dx="1.5" dy="0.3" layer="1" rot="R180" stop="no"/>
<smd name="68" x="8.25" y="2.5" dx="1.5" dy="0.3" layer="1" rot="R180" stop="no"/>
<smd name="69" x="8.25" y="3" dx="1.5" dy="0.3" layer="1" rot="R180" stop="no"/>
<smd name="70" x="8.25" y="3.5" dx="1.5" dy="0.3" layer="1" rot="R180" stop="no"/>
<smd name="71" x="8.25" y="4" dx="1.5" dy="0.3" layer="1" rot="R180" stop="no"/>
<smd name="72" x="8.25" y="4.5" dx="1.5" dy="0.3" layer="1" rot="R180" stop="no"/>
<smd name="73" x="8.25" y="5" dx="1.5" dy="0.3" layer="1" rot="R180" stop="no"/>
<smd name="74" x="8.25" y="5.5" dx="1.5" dy="0.3" layer="1" rot="R180" stop="no"/>
<smd name="75" x="8.25" y="6" dx="1.5" dy="0.3" layer="1" rot="R180" stop="no"/>
<smd name="76" x="6" y="8.25" dx="1.5" dy="0.3" layer="1" rot="R270" stop="no"/>
<smd name="77" x="5.5" y="8.25" dx="1.5" dy="0.3" layer="1" rot="R270" stop="no"/>
<smd name="78" x="5" y="8.25" dx="1.5" dy="0.3" layer="1" rot="R270" stop="no"/>
<smd name="79" x="4.5" y="8.25" dx="1.5" dy="0.3" layer="1" rot="R270" stop="no"/>
<smd name="80" x="4" y="8.25" dx="1.5" dy="0.3" layer="1" rot="R270" stop="no"/>
<smd name="81" x="3.5" y="8.25" dx="1.5" dy="0.3" layer="1" rot="R270" stop="no"/>
<smd name="82" x="3" y="8.25" dx="1.5" dy="0.3" layer="1" rot="R270" stop="no"/>
<smd name="83" x="2.5" y="8.25" dx="1.5" dy="0.3" layer="1" rot="R270" stop="no"/>
<smd name="84" x="2" y="8.25" dx="1.5" dy="0.3" layer="1" rot="R270" stop="no"/>
<smd name="85" x="1.5" y="8.25" dx="1.5" dy="0.3" layer="1" rot="R270" stop="no"/>
<smd name="86" x="1" y="8.25" dx="1.5" dy="0.3" layer="1" rot="R270" stop="no"/>
<smd name="87" x="0.5" y="8.25" dx="1.5" dy="0.3" layer="1" rot="R270" stop="no"/>
<smd name="88" x="0" y="8.25" dx="1.5" dy="0.3" layer="1" rot="R270" stop="no"/>
<smd name="89" x="-0.5" y="8.25" dx="1.5" dy="0.3" layer="1" rot="R270" stop="no"/>
<smd name="90" x="-1" y="8.25" dx="1.5" dy="0.3" layer="1" rot="R270" stop="no"/>
<smd name="91" x="-1.5" y="8.25" dx="1.5" dy="0.3" layer="1" rot="R270" stop="no"/>
<smd name="92" x="-2" y="8.25" dx="1.5" dy="0.3" layer="1" rot="R270" stop="no"/>
<smd name="93" x="-2.5" y="8.25" dx="1.5" dy="0.3" layer="1" rot="R270" stop="no"/>
<smd name="94" x="-3" y="8.25" dx="1.5" dy="0.3" layer="1" rot="R270" stop="no"/>
<smd name="95" x="-3.5" y="8.25" dx="1.5" dy="0.3" layer="1" rot="R270" stop="no"/>
<smd name="96" x="-4" y="8.25" dx="1.5" dy="0.3" layer="1" rot="R270" stop="no"/>
<smd name="97" x="-4.5" y="8.25" dx="1.5" dy="0.3" layer="1" rot="R270" stop="no"/>
<smd name="98" x="-5" y="8.25" dx="1.5" dy="0.3" layer="1" rot="R270" stop="no"/>
<smd name="99" x="-5.5" y="8.25" dx="1.5" dy="0.3" layer="1" rot="R270" stop="no"/>
<smd name="100" x="-6" y="8.25" dx="1.5" dy="0.3" layer="1" rot="R270" stop="no"/>
<text x="-5.715" y="4.7625" size="1.27" layer="25" font="vector">&gt;NAME</text>
<text x="-5.715" y="2.8575" size="1.27" layer="27" font="vector">&gt;VALUE</text>
</package>
</packages>
<symbols>
<symbol name="FE06-1">
<wire x1="10.16" y1="0" x2="0" y2="0" width="0.4064" layer="94"/>
<wire x1="0" y1="17.78" x2="0" y2="0" width="0.4064" layer="94"/>
<wire x1="10.16" y1="0" x2="10.16" y2="17.78" width="0.4064" layer="94"/>
<wire x1="0" y1="17.78" x2="10.16" y2="17.78" width="0.4064" layer="94"/>
<pin name="!MCLR!" x="12.7" y="15.24" length="short" direction="pas" swaplevel="1" rot="R180"/>
<pin name="PGC" x="12.7" y="5.08" length="short" direction="pas" swaplevel="1" rot="R180"/>
<pin name="PGD" x="12.7" y="7.62" length="short" direction="pas" swaplevel="1" rot="R180"/>
<pin name="PGM" x="12.7" y="2.54" length="short" direction="pas" swaplevel="1" rot="R180"/>
<pin name="VDD" x="12.7" y="12.7" length="short" direction="pas" swaplevel="1" rot="R180"/>
<pin name="VSS" x="12.7" y="10.16" length="short" direction="pas" swaplevel="1" rot="R180"/>
<text x="0" y="-2.54" size="1.778" layer="96" font="vector">&gt;VALUE</text>
<text x="0" y="19.05" size="1.778" layer="95" font="vector">&gt;NAME</text>
</symbol>
<symbol name="PIC32MX_775_795_F512L">
<wire x1="-60.96" y1="58.42" x2="63.5" y2="58.42" width="0.254" layer="94"/>
<wire x1="63.5" y1="58.42" x2="63.5" y2="-55.88" width="0.254" layer="94"/>
<wire x1="63.5" y1="-55.88" x2="-60.96" y2="-55.88" width="0.254" layer="94"/>
<wire x1="-60.96" y1="-55.88" x2="-60.96" y2="58.42" width="0.254" layer="94"/>
<pin name="!MCLR!" x="-63.5" y="25.4" length="short"/>
<pin name="!SS1!/IC2/RD9" x="66.04" y="-20.32" length="short" rot="R180"/>
<pin name="AC1RX/SS4/U5RX/!U2CTS!/RF12" x="-63.5" y="-30.48" length="short"/>
<pin name="AC1TX/SCK4/U5TX/!U2RTS!/RF13" x="-63.5" y="-27.94" length="short"/>
<pin name="AERXD0/INT1/RE8" x="-63.5" y="17.78" length="short"/>
<pin name="AERXD1/INT2/RE9" x="-63.5" y="15.24" length="short"/>
<pin name="AERXERR/RG15" x="-63.5" y="53.34" length="short"/>
<pin name="AETXCLK/SCL1/INT3/RA14" x="66.04" y="-27.94" length="short" rot="R180"/>
<pin name="AETXD0/!SS3!/U4RX/!U1CTS!/CN20/RD14" x="-63.5" y="-43.18" length="short"/>
<pin name="AETXD1/SCK3/U4TX/!U1RTS!/CN21/RD15" x="-63.5" y="-45.72" length="short"/>
<pin name="AETXEN/SDA1/INT4/RA15" x="66.04" y="-25.4" length="short" rot="R180"/>
<pin name="AN2/C2IN-/CN4/RB2" x="-63.5" y="5.08" length="short"/>
<pin name="AN3/C2IN+/CN5/RB3" x="-63.5" y="7.62" length="short"/>
<pin name="AN4/C1IN-/CN6/RB4" x="-63.5" y="10.16" length="short"/>
<pin name="AN5/C1IN+/VBUSON/CN7/RB5" x="-63.5" y="12.7" length="short"/>
<pin name="AN8/C1OUT/RB8" x="-63.5" y="-15.24" length="short"/>
<pin name="AN9/C2OUT/RB9" x="-63.5" y="-17.78" length="short"/>
<pin name="AN10/CVREFOUT/PMA13/RB10" x="-63.5" y="-20.32" length="short"/>
<pin name="AN11/ERXERR/AETXERR/PMA12/RB11" x="-63.5" y="-22.86" length="short"/>
<pin name="AN12/ERXD0/AECRS/PMA11/RB12" x="-63.5" y="-33.02" length="short"/>
<pin name="AN13/ERXD1/AECOL/PMA10/RB13" x="-63.5" y="-35.56" length="short"/>
<pin name="AN14/ERXD2/AETXD3/PMALH/PMA1/RB14" x="-63.5" y="-38.1" length="short"/>
<pin name="AN15/ERXD3/AETXD2/OCFB/PMALL/PMA0/CN12/RB15" x="-63.5" y="-40.64" length="short"/>
<pin name="AVDD@3" x="-17.78" y="60.96" length="short" rot="R270"/>
<pin name="AVSS@3" x="-15.24" y="-58.42" length="short" rot="R90"/>
<pin name="C1RX/ETXD1/PMD11/RF0" x="66.04" y="20.32" length="short" rot="R180"/>
<pin name="C1TX/ETXD0/PMD10/RF1" x="66.04" y="22.86" length="short" rot="R180"/>
<pin name="C2RX/PMD8/RG0" x="66.04" y="27.94" length="short" rot="R180"/>
<pin name="C2TX/ETXERR/PMD9/RG1" x="66.04" y="25.4" length="short" rot="R180"/>
<pin name="D+/RG2" x="66.04" y="-40.64" length="short" rot="R180"/>
<pin name="D-/RG3" x="66.04" y="-43.18" length="short" rot="R180"/>
<pin name="ECOL/SCK2/U6TX/!U3RTS!/PMA5/CN8/RG6" x="-63.5" y="33.02" length="short"/>
<pin name="ECRS/SDA4/SDI2/U3RX/PMA4/CN9/RG7" x="-63.5" y="30.48" length="short"/>
<pin name="EMDC/AEMDC/IC4/PMCS1/PMA14/RD11" x="66.04" y="-15.24" length="short" rot="R180"/>
<pin name="ERXCLK/AERXCLK/EREFCLK/AEREFCLK/!SS2!/U6RX/!U3CTS!/PMA2/CN11/RG9" x="-63.5" y="22.86" length="short"/>
<pin name="ERXDV/AERXDV/ECRSDV/AECRSDV/SCL4/SDO2/U3TX/PMA3/CN10/RG8" x="-63.5" y="27.94" length="short"/>
<pin name="ETXCLK/PMD15/CN16/RD7" x="66.04" y="17.78" length="short" rot="R180"/>
<pin name="ETXD2/IC5/PMD12/RD12" x="66.04" y="5.08" length="short" rot="R180"/>
<pin name="ETXD3/PMD13/CN19/RD13" x="66.04" y="7.62" length="short" rot="R180"/>
<pin name="ETXEN/PMD14/CN15/RD6" x="66.04" y="15.24" length="short" rot="R180"/>
<pin name="OC2/RD1" x="66.04" y="-2.54" length="short" rot="R180"/>
<pin name="OC3/RD2" x="66.04" y="0" length="short" rot="R180"/>
<pin name="OC4/RD3" x="66.04" y="2.54" length="short" rot="R180"/>
<pin name="OC5/PMWR/CN13/RD4" x="66.04" y="10.16" length="short" rot="R180"/>
<pin name="OSC1/CLKI/RC12" x="17.78" y="-58.42" length="short" rot="R90"/>
<pin name="OSC2/CLKO/RC15" x="25.4" y="-58.42" length="short" rot="R90"/>
<pin name="PGEC1/AN1/CN3/RB1" x="-63.5" y="2.54" length="short"/>
<pin name="PGEC2/AN6/OCFA/RB6" x="-63.5" y="-5.08" length="short"/>
<pin name="PGED1/AN0/CN2/RB0" x="-63.5" y="0" length="short"/>
<pin name="PGED2/AN7/RB7" x="-63.5" y="-7.62" length="short"/>
<pin name="PMD0/RE0" x="66.04" y="35.56" length="short" rot="R180"/>
<pin name="PMD1/RE1" x="66.04" y="38.1" length="short" rot="R180"/>
<pin name="PMD2/RE2" x="66.04" y="48.26" length="short" rot="R180"/>
<pin name="PMD3/RE3" x="66.04" y="50.8" length="short" rot="R180"/>
<pin name="PMD4/RE4" x="66.04" y="53.34" length="short" rot="R180"/>
<pin name="PMD5/RE5" x="-63.5" y="50.8" length="short"/>
<pin name="PMD6/RE6" x="-63.5" y="48.26" length="short"/>
<pin name="PMD7/RE7" x="-63.5" y="45.72" length="short"/>
<pin name="PMRD/CN14/RD5" x="66.04" y="12.7" length="short" rot="R180"/>
<pin name="RTCC/EMDIO/AEMDIO/IC1/RD8" x="66.04" y="-22.86" length="short" rot="R180"/>
<pin name="SCK1/IC3/PMCS2/PMA15/RD10" x="66.04" y="-17.78" length="short" rot="R180"/>
<pin name="SCL2/RA2" x="66.04" y="-38.1" length="short" rot="R180"/>
<pin name="SCL3/SDO3/U1TX/RF8" x="66.04" y="-45.72" length="short" rot="R180"/>
<pin name="SCL5/SDO4/U2TX/PMA8/CN18/RF5" x="-63.5" y="-50.8" length="short"/>
<pin name="SDA2/RA3" x="66.04" y="-35.56" length="short" rot="R180"/>
<pin name="SDA3/SDI3/U1RX/RF2" x="66.04" y="-48.26" length="short" rot="R180"/>
<pin name="SDA5/SDI4/U2RX/PMA9/CN17/RF4" x="-63.5" y="-48.26" length="short"/>
<pin name="SDO1/OC1/INT0/RD0" x="66.04" y="-12.7" length="short" rot="R180"/>
<pin name="SOSCI/CN1/RC13" x="66.04" y="-10.16" length="short" rot="R180"/>
<pin name="SOSCO/T1CK/CN0/RC14" x="66.04" y="-7.62" length="short" rot="R180"/>
<pin name="T2CK/RC1" x="-63.5" y="43.18" length="short"/>
<pin name="T3CK/AC2TX/RC2" x="-63.5" y="40.64" length="short"/>
<pin name="T4CK/AC2RX/RC3" x="-63.5" y="38.1" length="short"/>
<pin name="T5CK/SDI1/RC4" x="-63.5" y="35.56" length="short"/>
<pin name="TCK/RA1" x="-63.5" y="-25.4" length="short"/>
<pin name="TDI/RA4" x="66.04" y="-33.02" length="short" rot="R180"/>
<pin name="TDO/RA5" x="66.04" y="-30.48" length="short" rot="R180"/>
<pin name="TMS/RA0" x="-63.5" y="20.32" length="short"/>
<pin name="TRCLK/RA6" x="66.04" y="30.48" length="short" rot="R180"/>
<pin name="TRD0/RG13" x="66.04" y="45.72" length="short" rot="R180"/>
<pin name="TRD1/RG12" x="66.04" y="43.18" length="short" rot="R180"/>
<pin name="TRD2/RG14" x="66.04" y="40.64" length="short" rot="R180"/>
<pin name="TRD3/RA7" x="66.04" y="33.02" length="short" rot="R180"/>
<pin name="USBID/RF3" x="66.04" y="-50.8" length="short" rot="R180"/>
<pin name="VBUS" x="20.32" y="60.96" length="short" rot="R270"/>
<pin name="VCAP/VDDCORE" x="30.48" y="60.96" length="short" rot="R270"/>
<pin name="VDD@1" x="-10.16" y="60.96" length="short" rot="R270"/>
<pin name="VDD@2" x="-7.62" y="60.96" length="short" rot="R270"/>
<pin name="VDD@4" x="-2.54" y="60.96" length="short" rot="R270"/>
<pin name="VDD@5" x="0" y="60.96" length="short" rot="R270"/>
<pin name="VDD@6" x="7.62" y="60.96" length="short" rot="R270"/>
<pin name="VDD@8" x="12.7" y="60.96" length="short" rot="R270"/>
<pin name="VREF+/CVREF+/AERXD3/PMA6/RA10" x="-63.5" y="-12.7" length="short"/>
<pin name="VREF-/CVREF-/AERXD2/PMA7/RA9" x="-63.5" y="-10.16" length="short"/>
<pin name="VSS@2" x="-7.62" y="-58.42" length="short" rot="R90"/>
<pin name="VSS@4" x="-2.54" y="-58.42" length="short" rot="R90"/>
<pin name="VSS@5" x="0" y="-58.42" length="short" rot="R90"/>
<pin name="VSS@6" x="5.08" y="-58.42" length="short" rot="R90"/>
<pin name="VSS@7" x="7.62" y="-58.42" length="short" rot="R90"/>
<pin name="VUSB3V3" x="5.08" y="60.96" length="short" rot="R270"/>
<text x="-60.96" y="-58.42" size="1.27" layer="95" font="vector">&gt;NAME</text>
<text x="-60.96" y="-60.96" size="1.27" layer="96" font="vector">&gt;VALUE</text>
</symbol>
<symbol name="24XX256">
<pin name="A0" x="-2.54" y="10.16" length="short"/>
<pin name="A1" x="-2.54" y="7.62" length="short"/>
<pin name="A2" x="-2.54" y="5.08" length="short"/>
<pin name="VSS" x="-2.54" y="2.54" length="short"/>
<pin name="SDA" x="20.32" y="2.54" length="short" rot="R180"/>
<pin name="SCL" x="20.32" y="5.08" length="short" rot="R180"/>
<pin name="WP" x="20.32" y="7.62" length="short" rot="R180"/>
<pin name="VCC" x="20.32" y="10.16" length="short" rot="R180"/>
<wire x1="0" y1="0" x2="0" y2="12.7" width="0.254" layer="94"/>
<wire x1="0" y1="12.7" x2="17.78" y2="12.7" width="0.254" layer="94"/>
<wire x1="17.78" y1="12.7" x2="17.78" y2="0" width="0.254" layer="94"/>
<wire x1="17.78" y1="0" x2="0" y2="0" width="0.254" layer="94"/>
<text x="0" y="-2.54" size="1.778" layer="95" font="vector">&gt;NAME</text>
<text x="0" y="-5.08" size="1.778" layer="96" font="vector">&gt;VALUE</text>
</symbol>
</symbols>
<devicesets>
<deviceset name="PIC32MX795F512L" prefix="U" uservalue="yes">
<description>PIC32MX795F512L</description>
<gates>
<gate name="U1" symbol="PIC32MX_775_795_F512L" x="0" y="-2.54"/>
</gates>
<devices>
<device name="-80V/PF" package="TQFP100_14X14X1">
<connects>
<connect gate="U1" pin="!MCLR!" pad="13"/>
<connect gate="U1" pin="!SS1!/IC2/RD9" pad="69"/>
<connect gate="U1" pin="AC1RX/SS4/U5RX/!U2CTS!/RF12" pad="40"/>
<connect gate="U1" pin="AC1TX/SCK4/U5TX/!U2RTS!/RF13" pad="39"/>
<connect gate="U1" pin="AERXD0/INT1/RE8" pad="18"/>
<connect gate="U1" pin="AERXD1/INT2/RE9" pad="19"/>
<connect gate="U1" pin="AERXERR/RG15" pad="1"/>
<connect gate="U1" pin="AETXCLK/SCL1/INT3/RA14" pad="66"/>
<connect gate="U1" pin="AETXD0/!SS3!/U4RX/!U1CTS!/CN20/RD14" pad="47"/>
<connect gate="U1" pin="AETXD1/SCK3/U4TX/!U1RTS!/CN21/RD15" pad="48"/>
<connect gate="U1" pin="AETXEN/SDA1/INT4/RA15" pad="67"/>
<connect gate="U1" pin="AN10/CVREFOUT/PMA13/RB10" pad="34"/>
<connect gate="U1" pin="AN11/ERXERR/AETXERR/PMA12/RB11" pad="35"/>
<connect gate="U1" pin="AN12/ERXD0/AECRS/PMA11/RB12" pad="41"/>
<connect gate="U1" pin="AN13/ERXD1/AECOL/PMA10/RB13" pad="42"/>
<connect gate="U1" pin="AN14/ERXD2/AETXD3/PMALH/PMA1/RB14" pad="43"/>
<connect gate="U1" pin="AN15/ERXD3/AETXD2/OCFB/PMALL/PMA0/CN12/RB15" pad="44"/>
<connect gate="U1" pin="AN2/C2IN-/CN4/RB2" pad="23"/>
<connect gate="U1" pin="AN3/C2IN+/CN5/RB3" pad="22"/>
<connect gate="U1" pin="AN4/C1IN-/CN6/RB4" pad="21"/>
<connect gate="U1" pin="AN5/C1IN+/VBUSON/CN7/RB5" pad="20"/>
<connect gate="U1" pin="AN8/C1OUT/RB8" pad="32"/>
<connect gate="U1" pin="AN9/C2OUT/RB9" pad="33"/>
<connect gate="U1" pin="AVDD@3" pad="30"/>
<connect gate="U1" pin="AVSS@3" pad="31"/>
<connect gate="U1" pin="C1RX/ETXD1/PMD11/RF0" pad="87"/>
<connect gate="U1" pin="C1TX/ETXD0/PMD10/RF1" pad="88"/>
<connect gate="U1" pin="C2RX/PMD8/RG0" pad="90"/>
<connect gate="U1" pin="C2TX/ETXERR/PMD9/RG1" pad="89"/>
<connect gate="U1" pin="D+/RG2" pad="57"/>
<connect gate="U1" pin="D-/RG3" pad="56"/>
<connect gate="U1" pin="ECOL/SCK2/U6TX/!U3RTS!/PMA5/CN8/RG6" pad="10"/>
<connect gate="U1" pin="ECRS/SDA4/SDI2/U3RX/PMA4/CN9/RG7" pad="11"/>
<connect gate="U1" pin="EMDC/AEMDC/IC4/PMCS1/PMA14/RD11" pad="71"/>
<connect gate="U1" pin="ERXCLK/AERXCLK/EREFCLK/AEREFCLK/!SS2!/U6RX/!U3CTS!/PMA2/CN11/RG9" pad="14"/>
<connect gate="U1" pin="ERXDV/AERXDV/ECRSDV/AECRSDV/SCL4/SDO2/U3TX/PMA3/CN10/RG8" pad="12"/>
<connect gate="U1" pin="ETXCLK/PMD15/CN16/RD7" pad="84"/>
<connect gate="U1" pin="ETXD2/IC5/PMD12/RD12" pad="79"/>
<connect gate="U1" pin="ETXD3/PMD13/CN19/RD13" pad="80"/>
<connect gate="U1" pin="ETXEN/PMD14/CN15/RD6" pad="83"/>
<connect gate="U1" pin="OC2/RD1" pad="76"/>
<connect gate="U1" pin="OC3/RD2" pad="77"/>
<connect gate="U1" pin="OC4/RD3" pad="78"/>
<connect gate="U1" pin="OC5/PMWR/CN13/RD4" pad="81"/>
<connect gate="U1" pin="OSC1/CLKI/RC12" pad="63"/>
<connect gate="U1" pin="OSC2/CLKO/RC15" pad="64"/>
<connect gate="U1" pin="PGEC1/AN1/CN3/RB1" pad="24"/>
<connect gate="U1" pin="PGEC2/AN6/OCFA/RB6" pad="26"/>
<connect gate="U1" pin="PGED1/AN0/CN2/RB0" pad="25"/>
<connect gate="U1" pin="PGED2/AN7/RB7" pad="27"/>
<connect gate="U1" pin="PMD0/RE0" pad="93"/>
<connect gate="U1" pin="PMD1/RE1" pad="94"/>
<connect gate="U1" pin="PMD2/RE2" pad="98"/>
<connect gate="U1" pin="PMD3/RE3" pad="99"/>
<connect gate="U1" pin="PMD4/RE4" pad="100"/>
<connect gate="U1" pin="PMD5/RE5" pad="3"/>
<connect gate="U1" pin="PMD6/RE6" pad="4"/>
<connect gate="U1" pin="PMD7/RE7" pad="5"/>
<connect gate="U1" pin="PMRD/CN14/RD5" pad="82"/>
<connect gate="U1" pin="RTCC/EMDIO/AEMDIO/IC1/RD8" pad="68"/>
<connect gate="U1" pin="SCK1/IC3/PMCS2/PMA15/RD10" pad="70"/>
<connect gate="U1" pin="SCL2/RA2" pad="58"/>
<connect gate="U1" pin="SCL3/SDO3/U1TX/RF8" pad="53"/>
<connect gate="U1" pin="SCL5/SDO4/U2TX/PMA8/CN18/RF5" pad="50"/>
<connect gate="U1" pin="SDA2/RA3" pad="59"/>
<connect gate="U1" pin="SDA3/SDI3/U1RX/RF2" pad="52"/>
<connect gate="U1" pin="SDA5/SDI4/U2RX/PMA9/CN17/RF4" pad="49"/>
<connect gate="U1" pin="SDO1/OC1/INT0/RD0" pad="72"/>
<connect gate="U1" pin="SOSCI/CN1/RC13" pad="73"/>
<connect gate="U1" pin="SOSCO/T1CK/CN0/RC14" pad="74"/>
<connect gate="U1" pin="T2CK/RC1" pad="6"/>
<connect gate="U1" pin="T3CK/AC2TX/RC2" pad="7"/>
<connect gate="U1" pin="T4CK/AC2RX/RC3" pad="8"/>
<connect gate="U1" pin="T5CK/SDI1/RC4" pad="9"/>
<connect gate="U1" pin="TCK/RA1" pad="38"/>
<connect gate="U1" pin="TDI/RA4" pad="60"/>
<connect gate="U1" pin="TDO/RA5" pad="61"/>
<connect gate="U1" pin="TMS/RA0" pad="17"/>
<connect gate="U1" pin="TRCLK/RA6" pad="91"/>
<connect gate="U1" pin="TRD0/RG13" pad="97"/>
<connect gate="U1" pin="TRD1/RG12" pad="96"/>
<connect gate="U1" pin="TRD2/RG14" pad="95"/>
<connect gate="U1" pin="TRD3/RA7" pad="92"/>
<connect gate="U1" pin="USBID/RF3" pad="51"/>
<connect gate="U1" pin="VBUS" pad="54"/>
<connect gate="U1" pin="VCAP/VDDCORE" pad="85"/>
<connect gate="U1" pin="VDD@1" pad="2"/>
<connect gate="U1" pin="VDD@2" pad="16"/>
<connect gate="U1" pin="VDD@4" pad="37"/>
<connect gate="U1" pin="VDD@5" pad="46"/>
<connect gate="U1" pin="VDD@6" pad="62"/>
<connect gate="U1" pin="VDD@8" pad="86"/>
<connect gate="U1" pin="VREF+/CVREF+/AERXD3/PMA6/RA10" pad="29"/>
<connect gate="U1" pin="VREF-/CVREF-/AERXD2/PMA7/RA9" pad="28"/>
<connect gate="U1" pin="VSS@2" pad="15"/>
<connect gate="U1" pin="VSS@4" pad="36"/>
<connect gate="U1" pin="VSS@5" pad="45"/>
<connect gate="U1" pin="VSS@6" pad="65"/>
<connect gate="U1" pin="VSS@7" pad="75"/>
<connect gate="U1" pin="VUSB3V3" pad="55"/>
</connects>
<technologies>
<technology name="">
<attribute name="ORDERNR" value="PIC32MX795F512L-80V/PF" constant="no"/>
<attribute name="PRICE_1" value="9,75" constant="no"/>
<attribute name="PRICE_10" value="9,75" constant="no"/>
<attribute name="PRICE_100" value="8,09" constant="no"/>
<attribute name="PRICE_1000" value="7,44" constant="no"/>
<attribute name="PRICE_50" value="8,94" constant="no"/>
<attribute name="PRICE_500" value="8,09" constant="no"/>
<attribute name="SPEC" value="" constant="no"/>
<attribute name="SUPPLIER" value="80MHz 32bit 2xCAN -40+105°C AEC-Q100" constant="no"/>
<attribute name="VALUE" value="" constant="no"/>
</technology>
</technologies>
</device>
</devices>
</deviceset>
<deviceset name="PICKIT3" prefix="SV" uservalue="yes">
<description>&lt;b&gt;FEMALE HEADER&lt;/b&gt;</description>
<gates>
<gate name="G$1" symbol="FE06-1" x="0" y="0"/>
</gates>
<devices>
<device name="" package="FE06W">
<connects>
<connect gate="G$1" pin="!MCLR!" pad="1"/>
<connect gate="G$1" pin="PGC" pad="5"/>
<connect gate="G$1" pin="PGD" pad="4"/>
<connect gate="G$1" pin="PGM" pad="6"/>
<connect gate="G$1" pin="VDD" pad="2"/>
<connect gate="G$1" pin="VSS" pad="3"/>
</connects>
<technologies>
<technology name="">
<attribute name="MF" value="" constant="no"/>
<attribute name="MPN" value="" constant="no"/>
<attribute name="OC_FARNELL" value="unknown" constant="no"/>
<attribute name="OC_NEWARK" value="unknown" constant="no"/>
</technology>
</technologies>
</device>
</devices>
</deviceset>
<deviceset name="24LC256" prefix="U">
<description>24LC256 EEPROM</description>
<gates>
<gate name="U1" symbol="24XX256" x="0" y="0"/>
</gates>
<devices>
<device name="-E/SN" package="MSOP8">
<connects>
<connect gate="U1" pin="A0" pad="1"/>
<connect gate="U1" pin="A1" pad="2"/>
<connect gate="U1" pin="A2" pad="3"/>
<connect gate="U1" pin="SCL" pad="7"/>
<connect gate="U1" pin="SDA" pad="8"/>
<connect gate="U1" pin="VCC" pad="5"/>
<connect gate="U1" pin="VSS" pad="4"/>
<connect gate="U1" pin="WP" pad="6"/>
</connects>
<technologies>
<technology name="">
<attribute name="ORDERNR" value=" 1579573" constant="no"/>
<attribute name="PRICE_1" value="0,861" constant="no"/>
<attribute name="PRICE_10" value="0,719" constant="no"/>
<attribute name="PRICE_100" value="0,681" constant="no"/>
<attribute name="PRICE_1000" value="0,681" constant="no"/>
<attribute name="PRICE_50" value="0,695" constant="no"/>
<attribute name="PRICE_500" value="0,681" constant="no"/>
<attribute name="VALUE" value="24LC256-E/SN" constant="no"/>
</technology>
</technologies>
</device>
</devices>
</deviceset>
</devicesets>
</library>
</drawing>
</eagle>
