<?xml version="1.0" encoding="utf-8"?>
<!DOCTYPE eagle SYSTEM "eagle.dtd">
<eagle version="6.6.0">
<drawing>
<settings>
<setting alwaysvectorfont="yes"/>
<setting verticaltext="up"/>
</settings>
<grid distance="1" unitdist="mic" unit="mic" style="lines" multiple="1" display="no" altdistance="0.01" altunitdist="inch" altunit="inch"/>
<layers>
<layer number="1" name="Top" color="4" fill="1" visible="yes" active="yes"/>
<layer number="2" name="Route2" color="1" fill="3" visible="no" active="yes"/>
<layer number="3" name="Route3" color="4" fill="3" visible="no" active="yes"/>
<layer number="14" name="Route14" color="1" fill="6" visible="no" active="yes"/>
<layer number="15" name="Route15" color="4" fill="6" visible="no" active="yes"/>
<layer number="16" name="Bottom" color="1" fill="1" visible="yes" active="yes"/>
<layer number="17" name="Pads" color="2" fill="1" visible="yes" active="yes"/>
<layer number="18" name="Vias" color="2" fill="1" visible="yes" active="yes"/>
<layer number="19" name="Unrouted" color="6" fill="1" visible="yes" active="yes"/>
<layer number="20" name="Dimension" color="15" fill="1" visible="yes" active="yes"/>
<layer number="21" name="tPlace" color="7" fill="1" visible="yes" active="yes"/>
<layer number="22" name="bPlace" color="7" fill="1" visible="yes" active="yes"/>
<layer number="23" name="tOrigins" color="15" fill="1" visible="yes" active="yes"/>
<layer number="24" name="bOrigins" color="15" fill="1" visible="yes" active="yes"/>
<layer number="25" name="tNames" color="7" fill="1" visible="yes" active="yes"/>
<layer number="26" name="bNames" color="7" fill="1" visible="yes" active="yes"/>
<layer number="27" name="tValues" color="7" fill="1" visible="yes" active="yes"/>
<layer number="28" name="bValues" color="7" fill="1" visible="yes" active="yes"/>
<layer number="29" name="tStop" color="7" fill="3" visible="no" active="yes"/>
<layer number="30" name="bStop" color="7" fill="6" visible="no" active="yes"/>
<layer number="31" name="tCream" color="7" fill="4" visible="no" active="yes"/>
<layer number="32" name="bCream" color="7" fill="5" visible="no" active="yes"/>
<layer number="33" name="tFinish" color="6" fill="3" visible="no" active="yes"/>
<layer number="34" name="bFinish" color="6" fill="6" visible="no" active="yes"/>
<layer number="35" name="tGlue" color="7" fill="4" visible="no" active="yes"/>
<layer number="36" name="bGlue" color="7" fill="5" visible="no" active="yes"/>
<layer number="37" name="tTest" color="7" fill="1" visible="no" active="yes"/>
<layer number="38" name="bTest" color="7" fill="1" visible="no" active="yes"/>
<layer number="39" name="tKeepout" color="4" fill="11" visible="yes" active="yes"/>
<layer number="40" name="bKeepout" color="1" fill="11" visible="yes" active="yes"/>
<layer number="41" name="tRestrict" color="4" fill="10" visible="yes" active="yes"/>
<layer number="42" name="bRestrict" color="1" fill="10" visible="yes" active="yes"/>
<layer number="43" name="vRestrict" color="2" fill="10" visible="yes" active="yes"/>
<layer number="44" name="Drills" color="7" fill="1" visible="no" active="yes"/>
<layer number="45" name="Holes" color="7" fill="1" visible="no" active="yes"/>
<layer number="46" name="Milling" color="3" fill="1" visible="no" active="yes"/>
<layer number="47" name="Measures" color="7" fill="1" visible="no" active="yes"/>
<layer number="48" name="Document" color="7" fill="1" visible="yes" active="yes"/>
<layer number="49" name="Reference" color="7" fill="1" visible="yes" active="yes"/>
<layer number="50" name="dxf" color="7" fill="1" visible="yes" active="yes"/>
<layer number="51" name="tDocu" color="7" fill="1" visible="yes" active="yes"/>
<layer number="52" name="bDocu" color="7" fill="1" visible="yes" active="yes"/>
<layer number="53" name="tGND_GNDA" color="7" fill="1" visible="yes" active="yes"/>
<layer number="54" name="bGND_GNDA" color="7" fill="1" visible="yes" active="yes"/>
<layer number="56" name="wert" color="7" fill="1" visible="yes" active="yes"/>
<layer number="91" name="Nets" color="2" fill="1" visible="yes" active="yes"/>
<layer number="92" name="Busses" color="1" fill="1" visible="yes" active="yes"/>
<layer number="93" name="Pins" color="2" fill="1" visible="yes" active="yes"/>
<layer number="94" name="Symbols" color="4" fill="1" visible="yes" active="yes"/>
<layer number="95" name="Names" color="7" fill="1" visible="yes" active="yes"/>
<layer number="96" name="Values" color="7" fill="1" visible="yes" active="yes"/>
<layer number="97" name="Info" color="7" fill="1" visible="yes" active="yes"/>
<layer number="98" name="Guide" color="6" fill="1" visible="yes" active="yes"/>
<layer number="99" name="SpiceOrder" color="7" fill="1" visible="yes" active="yes"/>
<layer number="100" name="text" color="7" fill="1" visible="yes" active="yes"/>
<layer number="101" name="Patch_Top" color="7" fill="1" visible="yes" active="yes"/>
<layer number="102" name="Vscore" color="7" fill="1" visible="yes" active="yes"/>
<layer number="104" name="Name" color="7" fill="1" visible="yes" active="yes"/>
<layer number="116" name="Patch_BOT" color="7" fill="1" visible="yes" active="yes"/>
<layer number="121" name="_tsilk" color="7" fill="1" visible="yes" active="yes"/>
<layer number="122" name="_bsilk" color="7" fill="1" visible="yes" active="yes"/>
<layer number="151" name="HeatSink" color="7" fill="1" visible="yes" active="yes"/>
<layer number="200" name="200bmp" color="7" fill="1" visible="yes" active="yes"/>
<layer number="201" name="201bmp" color="7" fill="1" visible="yes" active="yes"/>
<layer number="202" name="202bmp" color="7" fill="1" visible="yes" active="yes"/>
<layer number="203" name="203bmp" color="7" fill="1" visible="yes" active="yes"/>
<layer number="204" name="204bmp" color="7" fill="1" visible="yes" active="yes"/>
<layer number="205" name="205bmp" color="7" fill="1" visible="yes" active="yes"/>
<layer number="206" name="206bmp" color="7" fill="1" visible="yes" active="yes"/>
<layer number="207" name="207bmp" color="7" fill="1" visible="yes" active="yes"/>
<layer number="208" name="208bmp" color="7" fill="1" visible="yes" active="yes"/>
<layer number="209" name="209bmp" color="7" fill="1" visible="yes" active="yes"/>
<layer number="210" name="210bmp" color="7" fill="1" visible="yes" active="yes"/>
<layer number="211" name="211bmp" color="7" fill="1" visible="yes" active="yes"/>
<layer number="212" name="212bmp" color="7" fill="1" visible="yes" active="yes"/>
<layer number="213" name="213bmp" color="7" fill="1" visible="yes" active="yes"/>
<layer number="214" name="214bmp" color="7" fill="1" visible="yes" active="yes"/>
<layer number="215" name="215bmp" color="7" fill="1" visible="yes" active="yes"/>
<layer number="216" name="216bmp" color="7" fill="1" visible="yes" active="yes"/>
<layer number="217" name="217bmp" color="7" fill="1" visible="yes" active="yes"/>
<layer number="218" name="218bmp" color="7" fill="1" visible="yes" active="yes"/>
<layer number="219" name="219bmp" color="7" fill="1" visible="yes" active="yes"/>
<layer number="220" name="220bmp" color="7" fill="1" visible="yes" active="yes"/>
<layer number="221" name="221bmp" color="7" fill="1" visible="yes" active="yes"/>
<layer number="222" name="222bmp" color="7" fill="1" visible="yes" active="yes"/>
<layer number="223" name="223bmp" color="7" fill="1" visible="yes" active="yes"/>
<layer number="224" name="224bmp" color="7" fill="1" visible="yes" active="yes"/>
<layer number="225" name="225bmp" color="7" fill="1" visible="yes" active="yes"/>
<layer number="226" name="226bmp" color="7" fill="1" visible="yes" active="yes"/>
<layer number="227" name="227bmp" color="7" fill="1" visible="yes" active="yes"/>
<layer number="228" name="228bmp" color="7" fill="1" visible="yes" active="yes"/>
<layer number="250" name="Descript" color="7" fill="1" visible="yes" active="yes"/>
<layer number="251" name="SMDround" color="7" fill="1" visible="yes" active="yes"/>
<layer number="254" name="cooling" color="7" fill="1" visible="yes" active="yes"/>
</layers>
<library>
<packages>
<package name="SO-08">
<description>&lt;b&gt;D (R-PDSO-G8)&lt;/b&gt; Plastic Small Outline Package&lt;p&gt;

Source: http://focus.ti.com/lit/ds/symlink/sn65als176.pdf</description>
<wire x1="-2.754" y1="3.9" x2="2.754" y2="3.9" width="0.2" layer="39"/>
<wire x1="2.754" y1="3.9" x2="2.754" y2="-3.9" width="0.2" layer="39"/>
<wire x1="2.754" y1="-3.9" x2="-2.754" y2="-3.9" width="0.2" layer="39"/>
<wire x1="-2.754" y1="-3.9" x2="-2.754" y2="3.9" width="0.2" layer="39"/>
<wire x1="2.4" y1="1.9" x2="2.4" y2="-1.3" width="0.2032" layer="21"/>
<wire x1="2.4" y1="-1.3" x2="2.4" y2="-1.9" width="0.2032" layer="21"/>
<wire x1="2.4" y1="-1.9" x2="-2.4" y2="-1.9" width="0.2032" layer="51"/>
<wire x1="-2.4" y1="-1.9" x2="-2.4" y2="-1.3" width="0.2032" layer="21"/>
<wire x1="-2.4" y1="-1.3" x2="-2.4" y2="-0.5" width="0.2032" layer="21"/>
<wire x1="-2.4" y1="-0.5" x2="-2.4" y2="0.5" width="0.2032" layer="21"/>
<wire x1="-2.4" y1="0.5" x2="-2.4" y2="1.9" width="0.2032" layer="21"/>
<wire x1="-2.4" y1="1.9" x2="2.4" y2="1.9" width="0.2032" layer="51"/>
<wire x1="-1.5" y1="1.9" x2="-1.1" y2="1.9" width="0.127" layer="21"/>
<wire x1="-0.2" y1="1.9" x2="0.2" y2="1.9" width="0.127" layer="21"/>
<wire x1="1.1" y1="1.9" x2="1.5" y2="1.9" width="0.127" layer="21"/>
<wire x1="-1.5" y1="-1.9" x2="-1.1" y2="-1.9" width="0.127" layer="21"/>
<wire x1="-0.2" y1="-1.9" x2="0.2" y2="-1.9" width="0.127" layer="21"/>
<wire x1="1.1" y1="-1.9" x2="1.5" y2="-1.9" width="0.127" layer="21"/>
<wire x1="-2.4" y1="-1.3" x2="2.4" y2="-1.3" width="0.05" layer="21"/>
<wire x1="-2.4" y1="-0.5" x2="-2.4" y2="0.5" width="0.127" layer="21" curve="180"/>
<rectangle x1="-2.15" y1="-3.1" x2="-1.66" y2="-2" layer="51"/>
<rectangle x1="-0.88" y1="-3.1" x2="-0.39" y2="-2" layer="51"/>
<rectangle x1="0.39" y1="-3.1" x2="0.88" y2="-2" layer="51"/>
<rectangle x1="1.66" y1="-3.1" x2="2.15" y2="-2" layer="51"/>
<rectangle x1="1.66" y1="2" x2="2.15" y2="3.1" layer="51"/>
<rectangle x1="0.39" y1="2" x2="0.88" y2="3.1" layer="51"/>
<rectangle x1="-0.88" y1="2" x2="-0.39" y2="3.1" layer="51"/>
<rectangle x1="-2.15" y1="2" x2="-1.66" y2="3.1" layer="51"/>
<smd name="1" x="-1.905" y="-2.6" dx="0.6" dy="2.2" layer="1"/>
<smd name="2" x="-0.635" y="-2.6" dx="0.6" dy="2.2" layer="1"/>
<smd name="3" x="0.635" y="-2.6" dx="0.6" dy="2.2" layer="1"/>
<smd name="4" x="1.905" y="-2.6" dx="0.6" dy="2.2" layer="1"/>
<smd name="5" x="1.905" y="2.6" dx="0.6" dy="2.2" layer="1"/>
<smd name="6" x="0.635" y="2.6" dx="0.6" dy="2.2" layer="1"/>
<smd name="7" x="-0.635" y="2.6" dx="0.6" dy="2.2" layer="1"/>
<smd name="8" x="-1.905" y="2.6" dx="0.6" dy="2.2" layer="1"/>
<text x="-3.175" y="-1.905" size="1.27" layer="25" rot="R90" font="vector">&gt;NAME</text>
<text x="4.445" y="-1.905" size="1.27" layer="27" rot="R90" font="vector">&gt;VALUE</text>
</package>
</packages>
<symbols>
<symbol name="VP10">
<wire x1="0" y1="12.7" x2="0" y2="0" width="0.254" layer="94"/>
<wire x1="0" y1="0" x2="20.32" y2="0" width="0.254" layer="94"/>
<wire x1="20.32" y1="0" x2="20.32" y2="12.7" width="0.254" layer="94"/>
<wire x1="20.32" y1="12.7" x2="0" y2="12.7" width="0.254" layer="94"/>
<pin name="!RE" x="-2.54" y="2.54" length="short"/>
<pin name="A" x="22.86" y="5.08" length="short" rot="R180"/>
<pin name="B" x="22.86" y="7.62" length="short" rot="R180"/>
<pin name="DE" x="-2.54" y="10.16" length="short"/>
<pin name="D_IN" x="-2.54" y="7.62" length="short"/>
<pin name="GND" x="22.86" y="2.54" length="short" rot="R180"/>
<pin name="R_OUT" x="-2.54" y="5.08" length="short"/>
<pin name="VCC" x="22.86" y="10.16" length="short" rot="R180"/>
<text x="0" y="-2.54" size="1.27" layer="95" font="vector">&gt;NAME</text>
<text x="0" y="-5.08" size="1.27" layer="96" font="vector">&gt;VALUE</text>
</symbol>
<symbol name="VP231">
<wire x1="0" y1="12.7" x2="0" y2="0" width="0.254" layer="94"/>
<wire x1="0" y1="0" x2="20.32" y2="0" width="0.254" layer="94"/>
<wire x1="20.32" y1="0" x2="20.32" y2="12.7" width="0.254" layer="94"/>
<wire x1="20.32" y1="12.7" x2="0" y2="12.7" width="0.254" layer="94"/>
<pin name="CANH" x="22.86" y="7.62" length="short" rot="R180"/>
<pin name="CANL" x="22.86" y="5.08" length="short" rot="R180"/>
<pin name="GND" x="22.86" y="2.54" length="short" rot="R180"/>
<pin name="RS" x="-2.54" y="2.54" length="short"/>
<pin name="RX" x="-2.54" y="5.08" length="short"/>
<pin name="TX" x="-2.54" y="7.62" length="short"/>
<pin name="VCC" x="22.86" y="10.16" length="short" rot="R180"/>
<pin name="VREF" x="-2.54" y="10.16" length="short"/>
<text x="0" y="-2.54" size="1.27" layer="95" font="vector">&gt;NAME</text>
<text x="0" y="-5.08" size="1.27" layer="96" font="vector">&gt;VALUE</text>
</symbol>
</symbols>
<devicesets>
<deviceset name="SN65HVD10D" prefix="U">
<description>SN65HVD10D &lt;BR&gt;
VP10 &lt;BR&gt;
EIA-485 Tranciever &lt;BR&gt;

&lt;BR&gt;
Order:&lt;BR&gt;
http://de.farnell.com/texas-instruments/sn65hvd10dg4/transceiver-rs-485-65hvd10-soic8/dp/1207267&lt;BR&gt;
&lt;BR&gt;</description>
<gates>
<gate name="G$1" symbol="VP10" x="0" y="0"/>
</gates>
<devices>
<device name="" package="SO-08">
<connects>
<connect gate="G$1" pin="!RE" pad="2"/>
<connect gate="G$1" pin="A" pad="7"/>
<connect gate="G$1" pin="B" pad="6"/>
<connect gate="G$1" pin="DE" pad="3"/>
<connect gate="G$1" pin="D_IN" pad="4"/>
<connect gate="G$1" pin="GND" pad="5"/>
<connect gate="G$1" pin="R_OUT" pad="1"/>
<connect gate="G$1" pin="VCC" pad="8"/>
</connects>
<technologies>
<technology name=""/>
</technologies>
</device>
</devices>
</deviceset>
<deviceset name="SN65HVD231" prefix="U">
<description>CAN Transciever</description>
<gates>
<gate name="G$1" symbol="VP231" x="0" y="0"/>
</gates>
<devices>
<device name="" package="SO-08">
<connects>
<connect gate="G$1" pin="CANH" pad="7"/>
<connect gate="G$1" pin="CANL" pad="6"/>
<connect gate="G$1" pin="GND" pad="2"/>
<connect gate="G$1" pin="RS" pad="8"/>
<connect gate="G$1" pin="RX" pad="4"/>
<connect gate="G$1" pin="TX" pad="1"/>
<connect gate="G$1" pin="VCC" pad="3"/>
<connect gate="G$1" pin="VREF" pad="5"/>
</connects>
<technologies>
<technology name=""/>
</technologies>
</device>
</devices>
</deviceset>
</devicesets>
</library>
</drawing>
</eagle>
